



INPUT FILE NAME: X:\Users\CarlosG\Desktop\Sara\CalibrationToolSara\CalibrationTool\SourceCode\GASACalibration\output_20160712_110802_CORSIM Network_GASA\MultiRun\CalibratedModel_8.trf
RUN DATE       : 07/12/16  








                                        TTTTTTTTTTT  RRRRRRRRR      AAAAAAA    FFFFFFFFFFF
                                        TTTTTTTTTTT  RRRRRRRRRR    AAAAAAAAA   FFFFFFFFFFF
                                        TTTTTTTTTTT  RRRRRRRRRRR  AAAAAAAAAAA  FFFFFFFFFFF
                                            TTT      RRR     RRR  AAA     AAA  FFF        
                                            TTT      RRR     RRR  AAA     AAA  FFF        
                                            TTT      RRRRRRRRRRR  AAAAAAAAAAA  FFFFFFF    
                                            TTT      RRRRRRRRRR   AAAAAAAAAAA  FFFFFFF    
                                            TTT      RRR RRR      AAA     AAA  FFF        
                                            TTT      RRR  RRR     AAA     AAA  FFF        
                                            TTT      RRR   RRR    AAA     AAA  FFF        
                                            TTT      RRR    RRR   AAA     AAA  FFF        
                                            TTT      RRR     RRR  AAA     AAA  FFF        




















                                                      VERSION 6.3                 
                                                      RELEASE DATE AUGUST 2012
                                                      BUILD NUMBER 513

                                                      TRAF SIMULATION MODEL

                                                           DEVELOPED FOR

                                                 U. S. DEPARTMENT OF TRANSPORTATION
                                                   FEDERAL HIGHWAY ADMINISTRATION
                                    FHWA OFFICE OF OPERATIONS RESEARCH, DEVELOPMENT AND TECHNOLOGY


                                       CARD FILE LIST
 SEQ.# :----+----1----+----2----+----3----+----4----+----5----+----6----+----7----+----8

     1 :                                       5  142013                           0   1
     2 :       1   0   0  10    18491 0000  0              31409       29707    2073   2
     3 : 900                                                                           3
     4 :           1      60                                                           4
     5 :   0       0   0   0   0   0   0   0   0   0   0   0                           5
     6 :8001   9             2     01              1              40  58      0       11
     7 :   9   1 500         4     01          3   4   2       4  40  58  30  0       11
     8 :   1   9 500         2     01           8001              89  30  30  0       11
     9 :   1   4 500         2     01           8002              40  58  30  0       11
    10 :   4   1 500         5     01          2   9   3       9  63  46  30  0       11
    11 :8002   4             2     01              1              87  27      0       11
    12 :8003   3             2     01              1              46  73      0       11
    13 :   3   1 500         4     01          4   2   9       2  13  90  30  0       11
    14 :   1   3 500         4     01           8003              40  58  30  0       11
    15 :   1   2 470         4     01          5   7   6       7   1  22  30  0       11
    16 :   2   1 470         4     01          9   3   4       3  37  89  30  0       11
    17 :   2   7 500         4     01           8004              80  88  30  0       11
    18 :   7   2 500         4     01          6   1   5       1  59  76  30  0       11
    19 :8004   7             2     01              2              50  68      0       11
    20 :8005   6             2     01              2              50  68      0       11
    21 :   6   2 300         2     01          1   5   7       5  36  63  30  0       11
    22 :   2   6 300         2     01           8005              80  42  30  0       11
    23 :   2   5 300         2     01           8006              50  68  30  0       11
    24 :   5   2 300         2     01          7   6   1       6  44  18  30  0       11
    25 :8006   5             2     01              2              70  88      0       11
    26 :8001   9     100                                                              21
    27 :   9   1  33  33  33   0                                                      21
    28 :   1   9     100                                                              21
    29 :   1   4     100                                                              21
    30 :   4   1  33  33  33   0                                                      21
    31 :8002   4     100                                                              21
    32 :8003   3     100                                                              21
    33 :   3   1  33  33  33   0                                                      21
    34 :   1   3     100                                                              21
    35 :   1   2  33  33  33   0                                                      21
    36 :   2   1  33  33  33   0                                                      21
    37 :   2   7     100                                                              21
    38 :   7   2  33  33  33   0                                                      21
    39 :8004   7     100                                                              21
    40 :8005   6     100                                                              21
    41 :   6   2  33  33  33   0                                                      21
    42 :   2   6     100                                                              21
    43 :   2   5     100                                                              21
    44 :   5   2  33  33  33   0                                                      21
    45 :8006   5     100                                                              21
    46 :   1   0   9   2   4   3      90   5  20  90   5  20                          35
    47 :   2   0   6   7   5   1      60   5  20  60   5  20  60   5  20  60   5  20  35
    48 :   3    8003   1                                                              35
    49 :   4       18002                                                              35
    50 :   5       28006                                                              35
 SEQ.# :----+----1----+----2----+----3----+----4----+----5----+----6----+----7----+----8


                                   CARD FILE LIST (CONT.)
 SEQ.# :----+----1----+----2----+----3----+----4----+----5----+----6----+----7----+----8

    51 :   6    8005   2                                                              35
    52 :   7       28004                                                              35
    53 :   9    8001   1                                                              35
    54 :   1 1212 0202 2222 2121 2020 2222                                            36
    55 :   2 1212 0202 2222 2221 2220 2222 2121 2020 2222 4242 0202 2222              36
    56 :   3 11                                                                       36
    57 :   4 11                                                                       36
    58 :   5 11                                                                       36
    59 :   6 11                                                                       36
    60 :   7 11                                                                       36
    61 :   9 11                                                                       36
    62 :8001   9 500   0   0  100                                                     50
    63 :8002   4 500   0   0  100                                                     50
    64 :8003   31000   0   0  100                                                     50
    65 :8004   7 700   0   0  100                                                     50
    66 :8005   6 500   0   0  100                                                     50
    67 :8006   5 500   0   0  100                                                     50
    68 :  57  43                                                                     153
    69 :   0                                                                         170
    70 :8001     226    1268                                                         195
    71 :8002    1375    1272                                                         195
    72 :8003     790    1861                                                         195
    73 :8004     807     223                                                         195
    74 :8005     429     804                                                         195
    75 :8006    1172     800                                                         195
    76 :   1     800    1270                                                         195
    77 :   2     800     800                                                         195
    78 :   3     800    1770                                                         195
    79 :   4    1300    1270                                                         195
    80 :   5    1100     800                                                         195
    81 :   6     500     800                                                         195
    82 :   7     800     300                                                         195
    83 :   9     300    1270                                                         195
    84 :   1   0   0                                                                 210
 SEQ.# :----+----1----+----2----+----3----+----4----+----5----+----6----+----7----+----8


                                                        TRAF SIMULATION MODEL

                                                           DEVELOPED FOR

                                                 U. S. DEPARTMENT OF TRANSPORTATION
                                                   FEDERAL HIGHWAY ADMINISTRATION
                                    FHWA OFFICE OF OPERATIONS RESEARCH, DEVELOPMENT AND TECHNOLOGY




                                                   DATE =  5/14/2013
                                                   USER =                                     
                                                 AGENCY =                         

                                                        RUN CONTROL DATA


                      VALUE                         RUN PARAMETERS AND OPTIONS

                          0     RUN IDENTIFICATION NUMBER
                          1     RUN TYPE CODE = ( 1, 2, 3) TO RUN (SIMULATION, ASSIGNMENT, BOTH)
                                                (-1,-2,-3) TO CHECK (SIMULATION, ASSIGNMENT, BOTH) ONLY

                                NETSIM ENVIRONMENTAL OPTIONS
                                ----------------------------
                          0     FUEL/EMISSION RATE TABLES ARE NOT PRINTED                     
                          0     SIMULATION:  PERFORMED                              ENVIRONMENTAL MEASURES:  CALCULATED          
                                RATE TABLES: EMBEDDED                               TRAJECTORY FILE:         NOT WRITTEN         
                          0     CODE   = (0,1,2) FOR UNIFORM DISTRIBUTION, NORMAL DISTRIBUTION, ERLANG DISTRIBUTION
                          0     INITIALIZATION CODE (0,1) = (DO NOT, DO) FORCE FULL INITIALIZATION PERIOD
                          0     INPUT  UNITS CODE = (0,1) IF INPUT IS IN (ENGLISH, METRIC) UNITS
                          0     OUTPUT UNITS CODE = (0,1,2,3) IF OUTPUT IS IN (SAME AS INPUT, ENGLISH, METRIC, BOTH) UNITS
                       1409     CLOCK TIME AT START OF SIMULATION (HHMM)
                          0     SIGNAL TRANSITION CODE = (0,1,2,3) IF(NO, IMMEDIATE, 2-CYCLE, 3-CYCLE) TRANSITION WAS REQUESTED
                       2073     RANDOM NUMBER SEED
                      29707     RANDOM NUMBER SEED TO GENERATE TRAFFIC STREAM FOR NETSIM OR LEVEL I SIMULATION
                      18491     RANDOM NUMBER SEED TO GENERATE EMISSION HEADWAYS FOR NETSIM SIMULATION
                        900     DURATION (SEC) OF TIME PERIOD NO.  1
                         60     LENGTH OF A TIME INTERVAL, SECONDS
                         10     MAXIMUM INITIALIZATION TIME, NUMBER OF TIME INTERVALS
                          0     NUMBER OF TIME INTERVALS BETWEEN SUCCESSIVE STANDARD OUTPUTS
                          0     TIME INTERMEDIATE OUTPUT WILL BEGIN AT INTERVALS OF    0 SECS. FOR    0 SECS. FOR MICROSCOPIC MODELS
                          0     NETSIM MOVEMENT-SPECIFIC OUTPUT CODE = (0,1) (IF NOT, IF) REQUESTED FOR NETSIM SUBNETWORK


***********************************************************************************************************************************

                                                 TIME PERIOD   1 - NETSIM DATA

***********************************************************************************************************************************


                                                            NETSIM LINKS


                      -LANES-         -CHANNEL-

                        F               C
                        U               U                                  LOST  Q DIS   FREE                LANE
              LENGTH    L PKT GRD LINK  R         DESTINATION NODE   OPP.  TIME  HDWY.   SPEED    RTOR PED  ALIGN    STREET
     LINK     FT / M    L L R PCT TYPE  B234567  LEFT THRU RGHT DIAG NODE  SEC   SEC    MPH/KMPH  CODE CODE -MENT     NAME

 (8001,   9)    0/   0  2 0 0  0   1    0000000     0    1    0    0    0  4.0    5.8     0/  0     0   0    1-1*              
 (   9,   1)  500/ 152  4 0 0  0   1    0000000     3    4    2    0    4  4.0    5.8    30/ 48     0   0    1-1*              
 (   1,   9)  500/ 152  2 0 0  0   1    0000000     0 8001    0    0    0  8.9    3.0    30/ 48     0   0    1-1*              
 (   1,   4)  500/ 152  2 0 0  0   1    0000000     0 8002    0    0    0  4.0    5.8    30/ 48     0   0    1-1*              
 (   4,   1)  500/ 152  5 0 0  0   1    0000000     2    9    3    0    9  6.3    4.6    30/ 48     0   0    1-1*              
 (8002,   4)    0/   0  2 0 0  0   1    0000000     0    1    0    0    0  8.7    2.7     0/  0     0   0    1-1*              
 (8003,   3)    0/   0  2 0 0  0   1    0000000     0    1    0    0    0  4.6    7.3     0/  0     0   0    1-1*              
 (   3,   1)  500/ 152  4 0 0  0   1    0000000     4    2    9    0    2  1.3    9.0    30/ 48     0   0    1-1*              
 (   1,   3)  500/ 152  4 0 0  0   1    0000000     0 8003    0    0    0  4.0    5.8    30/ 48     0   0    1-1*              
*****   WARNING   -  203 - Unusual start-up lost time, 1, on link (1,2).
 
 (   1,   2)  470/ 143  4 0 0  0   1    0000000     5    7    6    0    7  0.1    2.2    30/ 48     0   0    1-1*              
 (   2,   1)  470/ 143  4 0 0  0   1    0000000     9    3    4    0    3  3.7    8.9    30/ 48     0   0    1-1*              
 (   2,   7)  500/ 152  4 0 0  0   1    0000000     0 8004    0    0    0  8.0    8.8    30/ 48     0   0    1-1*              
 (   7,   2)  500/ 152  4 0 0  0   1    0000000     6    1    5    0    1  5.9    7.6    30/ 48     0   0    1-1*              
 (8004,   7)    0/   0  2 0 0  0   1    0000000     0    2    0    0    0  5.0    6.8     0/  0     0   0    1-1*              
 (8005,   6)    0/   0  2 0 0  0   1    0000000     0    2    0    0    0  5.0    6.8     0/  0     0   0    1-1*              
 (   6,   2)  300/  91  2 0 0  0   1    0000000     1    5    7    0    5  3.6    6.3    30/ 48     0   0    1-1*              
 (   2,   6)  300/  91  2 0 0  0   1    0000000     0 8005    0    0    0  8.0    4.2    30/ 48     0   0    1-1*              
 (   2,   5)  300/  91  2 0 0  0   1    0000000     0 8006    0    0    0  5.0    6.8    30/ 48     0   0    1-1*              
 (   5,   2)  300/  91  2 0 0  0   1    0000000     7    6    1    0    6  4.4    1.8    30/ 48     0   0    1-1*              
 (8006,   5)    0/   0  2 0 0  0   1    0000000     0    2    0    0    0  7.0    8.8     0/  0     0   0    1-1*              


                                             * INDICATES DEFAULT VALUES WERE SPECIFIED



              LINK TYPE                 LANE CHANNELIZATION                    RTOR                    PEDESTRIAN
                                               CODES                           CODES                      CODES

          IDENTIFIES THE               0  UNRESTRICTED                 0  RTOR PERMITTED           0  NO PEDESTRIANS
        DISTRIBUTION USED FOR          1  LEFT TURNS ONLY              1  RTOR PROHIBITED          1  LIGHT
        QUEUE DISCHARGE AND            2  BUSES ONLY                                               2  MODERATE
        START-UP LOST TIME             3  CLOSED                                                   3  HEAVY
        CHARACTERISTICS.               4  RIGHT TURNS ONLY
                                       5  CAR - POOLS
                                       6  CAR - POOLS + BUSES
                                       7  RIGHT TURNS + RIGHT DIAGONAL AND/OR THROUGH
                                       8  LEFT TURNS + LEFT DIAGONAL AND/OR THROUGH
                                       9  ALL PERMITTED MOVEMENTS WITH RESPECT TO
                                          THE GEOMETRY AND ADJACENT LANE CHANNELIZATIONS
                                       D  DIAGONAL TRAFFIC ONLY
                                       T  THROUGH TRAFFIC ONLY

                  TOTAL LINKS:   20
                  TOTAL NON-ENTRY NODES:    8 (ALLOWED: 8999)



                                                      NETSIM TURNING MOVEMENT DATA

                               TURN MOVEMENT PERCENTAGES            TURN MOVEMENT POSSIBLE           POCKET LENGTH (IN FEET/METERS)
          LINK                LEFT THROUGH RIGHT DIAGONAL         LEFT THROUGH RIGHT DIAGONAL             LEFT          RIGHT

      (8001,   9)              0.0  100.0    0.0    0.0            NO    YES    NO     NO                0/    0       0/    0
      (   9,   1)             33.3   33.3   33.3    0.0            YES   YES    YES    NO                0/    0       0/    0
      (   1,   9)              0.0  100.0    0.0    0.0            NO    YES    NO     NO                0/    0       0/    0
      (   1,   4)              0.0  100.0    0.0    0.0            NO    YES    NO     NO                0/    0       0/    0
      (   4,   1)             33.3   33.3   33.3    0.0            YES   YES    YES    NO                0/    0       0/    0
      (8002,   4)              0.0  100.0    0.0    0.0            NO    YES    NO     NO                0/    0       0/    0
      (8003,   3)              0.0  100.0    0.0    0.0            NO    YES    NO     NO                0/    0       0/    0
      (   3,   1)             33.3   33.3   33.3    0.0            YES   YES    YES    NO                0/    0       0/    0
      (   1,   3)              0.0  100.0    0.0    0.0            NO    YES    NO     NO                0/    0       0/    0
      (   1,   2)             33.3   33.3   33.3    0.0            YES   YES    YES    NO                0/    0       0/    0
      (   2,   1)             33.3   33.3   33.3    0.0            YES   YES    YES    NO                0/    0       0/    0
      (   2,   7)              0.0  100.0    0.0    0.0            NO    YES    NO     NO                0/    0       0/    0
      (   7,   2)             33.3   33.3   33.3    0.0            YES   YES    YES    NO                0/    0       0/    0
      (8004,   7)              0.0  100.0    0.0    0.0            NO    YES    NO     NO                0/    0       0/    0
      (8005,   6)              0.0  100.0    0.0    0.0            NO    YES    NO     NO                0/    0       0/    0
      (   6,   2)             33.3   33.3   33.3    0.0            YES   YES    YES    NO                0/    0       0/    0
      (   2,   6)              0.0  100.0    0.0    0.0            NO    YES    NO     NO                0/    0       0/    0
      (   2,   5)              0.0  100.0    0.0    0.0            NO    YES    NO     NO                0/    0       0/    0
      (   5,   2)             33.3   33.3   33.3    0.0            YES   YES    YES    NO                0/    0       0/    0
      (8006,   5)              0.0  100.0    0.0    0.0            NO    YES    NO     NO                0/    0       0/    0


                                  SPECIFIED FIXED-TIME SIGNAL CONTROL, AND SIGN CONTROL, CODES


                                                            NODE    1
                             OFFSET   0 SEC                                           CYCLE LENGTH 230 SEC


                INTERVAL    DURATION     +- - - - - - - - - - - - - - - APPROACHES - - - - - - - - - - - - - - - +
                 NUMBER   (SEC)  (PCT)   (   9,   1)    (   2,   1)    (   4,   1)    (   3,   1)
                    1       90     39         1              2              1              2
                    2        5      2         0              2              0              2
                    3       20      8         2              2              2              2
                    4       90     39         2              1              2              1
                    5        5      2         2              0              2              0
                    6       20      8         2              2              2              2


                                                            NODE    2
                             OFFSET   0 SEC                                           CYCLE LENGTH 340 SEC


                INTERVAL    DURATION     +- - - - - - - - - - - - - - - APPROACHES - - - - - - - - - - - - - - - +
                 NUMBER   (SEC)  (PCT)   (   6,   2)    (   7,   2)    (   5,   2)    (   1,   2)
                    1       60     17         1              2              1              2
                    2        5      1         0              2              0              2
                    3       20      5         2              2              2              2
                    4       60     17         2              2              2              1
                    5        5      1         2              2              2              0
                    6       20      5         2              2              2              2
                    7       60     17         2              1              2              1
                    8        5      1         2              0              2              0
                    9       20      5         2              2              2              2
                   10       60     17         4              2              4              2
                   11        5      1         0              2              0              2
                   12       20      5         2              2              2              2


                                                 NODE    3 IS UNDER SIGN CONTROL


                INTERVAL    DURATION     +- - - - - - - - - - - - - - - APPROACHES - - - - - - - - - - - - - - - +
                 NUMBER   (SEC)  (PCT)   (8003,   3)    (   1,   3)
                    1        0    100         1              1


                                                 NODE    4 IS UNDER SIGN CONTROL


                INTERVAL    DURATION     +- - - - - - - - - - - - - - - APPROACHES - - - - - - - - - - - - - - - +
                 NUMBER   (SEC)  (PCT)   (   1,   4)    (8002,   4)
                    1        0    100         1              1


                                                 NODE    5 IS UNDER SIGN CONTROL


                INTERVAL    DURATION     +- - - - - - - - - - - - - - - APPROACHES - - - - - - - - - - - - - - - +
                 NUMBER   (SEC)  (PCT)   (   2,   5)    (8006,   5)
                    1        0    100         1              1


                                                 NODE    6 IS UNDER SIGN CONTROL


                INTERVAL    DURATION     +- - - - - - - - - - - - - - - APPROACHES - - - - - - - - - - - - - - - +
                 NUMBER   (SEC)  (PCT)   (8005,   6)    (   2,   6)
                    1        0    100         1              1





                                                 NODE    7 IS UNDER SIGN CONTROL


                INTERVAL    DURATION     +- - - - - - - - - - - - - - - APPROACHES - - - - - - - - - - - - - - - +
                 NUMBER   (SEC)  (PCT)   (   2,   7)    (8004,   7)
                    1        0    100         1              1


                                                 NODE    9 IS UNDER SIGN CONTROL


                INTERVAL    DURATION     +- - - - - - - - - - - - - - - APPROACHES - - - - - - - - - - - - - - - +
                 NUMBER   (SEC)  (PCT)   (8001,   9)    (   1,   9)
                    1        0    100         1              1


                                                   INTERPRETATION OF SIGNAL CODES


                                           0          YIELD OR AMBER

                                           1          GREEN

                                           2          RED

                                           3          RED WITH GREEN RIGHT ARROW

                                           4          RED WITH GREEN LEFT ARROW

                                           5          STOP

                                           6          RED WITH GREEN DIAGONAL ARROW

                                           7          NO TURNS-GREEN THRU ARROW

                                           8          RED WITH LEFT AND RIGHT GREEN ARROW

                                           9          NO LEFT TURN-GREEN THRU AND RIGHT


                                     TRAFFIC CONTROL TABLE - SIGNS AND FIXED TIME SIGNALS

     CONTROL CODES  GO   = PROTECTED
                    NOGO = NOT PERMITTED
                    AMBR = AMBER
                    PERM = PERMITTED NOT PROTECTED
                    PROT = PROTECTED
                    STOP = STOP SIGN
                    YLD  = YIELD SIGN



       NODE    1      FIXED TIME CONTROL       OFFSET =   0 SECONDS      CYCLE LENGTH = 230 SECONDS

 INTERVAL DURATION    -------------------------------------------   APPROACHES   --------------------------------------------
                          (   9,   1)          (   2,   1)          (   4,   1)          (   3,   1)
                      LEFT THRU RITE DIAG  LEFT THRU RITE DIAG  LEFT THRU RITE DIAG  LEFT THRU RITE DIAG  LEFT THRU RITE DIAG  
       1       90     PERM  GO   GO        NOGO NOGO NOGO       PERM  GO   GO        NOGO NOGO NOGO     
       2        5     AMBR AMBR AMBR       NOGO NOGO NOGO       AMBR AMBR AMBR       NOGO NOGO NOGO     
       3       20     NOGO NOGO NOGO       NOGO NOGO NOGO       NOGO NOGO NOGO       NOGO NOGO NOGO     
       4       90     NOGO NOGO NOGO       PERM  GO   GO        NOGO NOGO NOGO       PERM  GO   GO      
       5        5     NOGO NOGO NOGO       AMBR AMBR AMBR       NOGO NOGO NOGO       AMBR AMBR AMBR     
       6       20     NOGO NOGO NOGO       NOGO NOGO NOGO       NOGO NOGO NOGO       NOGO NOGO NOGO     



       NODE    2      FIXED TIME CONTROL       OFFSET =   0 SECONDS      CYCLE LENGTH = 340 SECONDS

 INTERVAL DURATION    -------------------------------------------   APPROACHES   --------------------------------------------
                          (   6,   2)          (   7,   2)          (   5,   2)          (   1,   2)
                      LEFT THRU RITE DIAG  LEFT THRU RITE DIAG  LEFT THRU RITE DIAG  LEFT THRU RITE DIAG  LEFT THRU RITE DIAG  
       1       60     PERM  GO   GO        NOGO NOGO NOGO       PERM  GO   GO        NOGO NOGO NOGO     
       2        5     AMBR AMBR AMBR       NOGO NOGO NOGO       AMBR AMBR AMBR       NOGO NOGO NOGO     
       3       20     NOGO NOGO NOGO       NOGO NOGO NOGO       NOGO NOGO NOGO       NOGO NOGO NOGO     
       4       60     NOGO NOGO NOGO       NOGO NOGO NOGO       NOGO NOGO NOGO       PROT  GO   GO      
       5        5     NOGO NOGO NOGO       NOGO NOGO NOGO       NOGO NOGO NOGO       AMBR AMBR AMBR     
       6       20     NOGO NOGO NOGO       NOGO NOGO NOGO       NOGO NOGO NOGO       NOGO NOGO NOGO     
       7       60     NOGO NOGO NOGO       PERM  GO   GO        NOGO NOGO NOGO       PERM  GO   GO      
       8        5     NOGO NOGO NOGO       AMBR AMBR AMBR       NOGO NOGO NOGO       AMBR AMBR AMBR     
       9       20     NOGO NOGO NOGO       NOGO NOGO NOGO       NOGO NOGO NOGO       NOGO NOGO NOGO     
      10       60     PROT NOGO NOGO       NOGO NOGO NOGO       PROT NOGO NOGO       NOGO NOGO NOGO     
      11        5     AMBR NOGO NOGO       NOGO NOGO NOGO       AMBR NOGO NOGO       NOGO NOGO NOGO     
      12       20     NOGO NOGO NOGO       NOGO NOGO NOGO       NOGO NOGO NOGO       NOGO NOGO NOGO     



       NODE    3      SIGN CONTROL

 INTERVAL DURATION    -------------------------------------------   APPROACHES   --------------------------------------------
                          (8003,   3)          (   1,   3)
                      LEFT THRU RITE DIAG  LEFT THRU RITE DIAG  LEFT THRU RITE DIAG  LEFT THRU RITE DIAG  LEFT THRU RITE DIAG  
       1        0           GO                   GO           



       NODE    4      SIGN CONTROL

 INTERVAL DURATION    -------------------------------------------   APPROACHES   --------------------------------------------
                          (   1,   4)          (8002,   4)
                      LEFT THRU RITE DIAG  LEFT THRU RITE DIAG  LEFT THRU RITE DIAG  LEFT THRU RITE DIAG  LEFT THRU RITE DIAG  
       1        0           GO                   GO           



       NODE    5      SIGN CONTROL

 INTERVAL DURATION    -------------------------------------------   APPROACHES   --------------------------------------------
                          (   2,   5)          (8006,   5)
                      LEFT THRU RITE DIAG  LEFT THRU RITE DIAG  LEFT THRU RITE DIAG  LEFT THRU RITE DIAG  LEFT THRU RITE DIAG  
       1        0           GO                   GO           



       NODE    6      SIGN CONTROL

 INTERVAL DURATION    -------------------------------------------   APPROACHES   --------------------------------------------
                          (8005,   6)          (   2,   6)
                      LEFT THRU RITE DIAG  LEFT THRU RITE DIAG  LEFT THRU RITE DIAG  LEFT THRU RITE DIAG  LEFT THRU RITE DIAG  
       1        0           GO                   GO           



       NODE    7      SIGN CONTROL

 INTERVAL DURATION    -------------------------------------------   APPROACHES   --------------------------------------------
                          (   2,   7)          (8004,   7)
                      LEFT THRU RITE DIAG  LEFT THRU RITE DIAG  LEFT THRU RITE DIAG  LEFT THRU RITE DIAG  LEFT THRU RITE DIAG  
       1        0           GO                   GO           



       NODE    9      SIGN CONTROL

 INTERVAL DURATION    -------------------------------------------   APPROACHES   --------------------------------------------
                          (8001,   9)          (   1,   9)
                      LEFT THRU RITE DIAG  LEFT THRU RITE DIAG  LEFT THRU RITE DIAG  LEFT THRU RITE DIAG  LEFT THRU RITE DIAG  
       1        0           GO                   GO           


                                                ENTRY LINK VOLUMES

                      LINK              FLOW RATE      TRUCKS      CAR POOLS    HOV VIOLATORS
                                        (VEH/HOUR)    (PERCENT)    (PERCENT)     (PERCENT)

                   (8001,   9)              500            0            0          1.00
                   (8002,   4)              500            0            0          1.00
                   (8003,   3)             1000            0            0          1.00
                   (8004,   7)              700            0            0          1.00
                   (8005,   6)              500            0            0          1.00
                   (8006,   5)              500            0            0          1.00


                                                NETSIM VEHICLE TYPE SPECIFICATIONS

                     VEHICLE      LENGTH      Q DSCHG HDWY                  FLEET COMPONENT PERCENTAGES    PERF.
                      TYPE     FEET/METERS    FACTOR (PCT)    AVG. OCCUP.    AUTO   TRUCK  CARPOOL  BUS    INDEX
                       1**     16.0/  4.9         100            1.3          75      0      0      0        2
                       2**     35.0/ 10.7         120            1.2           0    100      0      0        3
                       3**     16.0/  4.9         100            2.5           0      0    100      0        2
                       4**     40.0/ 12.2         120           25.0           0      0      0    100        7
                       5**     14.0/  4.3         100            1.3          25      0      0      0        1
                       6**     53.0/ 16.2         120            1.2           0      0      0      0        4
                       7**     53.0/ 16.2         120            1.2           0      0      0      0        5
                       8**     64.0/ 19.5         120            1.2           0      0      0      0        6
                       9**     14.0/  4.3         100            2.5           0      0      0      0        1
 
                             ** INDICATES THAT ALL PARAMETERS FOR VEHICLE TYPE ASSUME DEFAULT VALUES


                                                   DEFAULT  LINK  GEOMETRIC  DATA

                                           WIDTH OF LANES                          12  FEET

                                           LONGITUDINAL DISTANCE FROM THE STOP       4 FEET
                                           LINE TO THE NEAR CURB

                                           FORWARD SIGHT DISTANCE AT STOP LINE   1000  FEET



                                                            LANE   CHANGE   DATA

                                          PARAMETERS                      VALUE                  UNITS
                                                                    ENGLISH / METRIC 

         DURATION OF LANE CHANGE MANEUVER                              3*                     SECONDS

         MEAN DRIVER REACTION TIME                                    10*                     TENTHS OF A SECOND

         TIME REQUIRED FOR SUCCESSIVE LANE CHANGES                    20*                     TENTHS OF A SECOND

         DECELERATION AT BEGINNING OF LANE CHANGE MANEUVER             5*   /      2          FEET [METERS] / SECOND**2

         DIFFERENCE IN VEHICLE'S DECELERATION OVER THE DISTANCE
            BETWEEN ITS POSITION WHEN IT BEGINS TO RESPOND TO AN
            OBSTRUCTION AND THE POSITION OF THE OBSTRUCTION -

                 FOR MANDATORY LANE CHANGE:                           10*   /      3          FEET [METERS] / SECOND**2
                 FOR DISCRETIONARY LANE CHANGE:                        5*   /      2          FEET [METERS] / SECOND**2

         PANIC DECELERATION RATE OF LEAD VEHICLE FOR
         COMPUTATION OF CAR-FOLLOWING LAW                             12*   /      4          FEET [METERS] / SECOND**2

         PANIC DECELERATION RATE OF FOLLOWER VEHICLE FOR
         COMPUTATION OF CAR-FOLLOWING LAW                             12*   /      4          FEET [METERS] / SECOND**2

         DRIVER TYPE FACTOR USED TO COMPUTE DRIVER AGGRESSIVENESS     25*

         URGENCY THRESHOLD                                             2*   /      1          10 * SECONDS**2 / FEET [METERS]

         SAFETY FACTOR FOR COMPUTATION OF PERCEIVED RISK OF LANE
         CHANGE                                                        8*                     FACTOR * 10

         PERCENT OF DRIVERS WHO COOPERATE WITH A LANE CHANGER         50*                     %

         HEADWAY BELOW WHICH ALL DRIVERS WILL ATTEMPT TO CHANGE
         LANES                                                        20*                     TENTHS OF A SECOND

         HEADWAY ABOVE WHICH NO DRIVERS WILL ATTEMPT TO CHANGE
         LANES                                                        50*                     TENTHS OF A SECOND

         FORWARD DISTANCE SCANNED BY DRIVER FOR A TURN MOVEMENT /
         BUS STATION IN ORDER TO ASSESS NEED FOR A LANE CHANGE       300*   /     91          FEET / [METERS]

                                              * INDICATES DEFAULT VALUES WERE SPECIFIED


                                                  EMBEDDED DATA CHANGES IN EFFECT

                 SCALAR OR                                                                                       CHANGED BY
                  ARRAY                                      C O N T E N T S                                     CARD TYPE
                  ------     - - - - - - - - - - - - - - - - - - - - - - - - - - - - - - - - - - - - - - - -     ----------

                 DRVFAM           57      43                                                               153


                                              MAXIMUM ACCELERATION TABLE
                                              --------------------------

      PERFORMANCE       0      10      20      30      40      50      60      70      80      90     100     110
      INDEX        FT/SEC  FT/SEC  FT/SEC  FT/SEC  FT/SEC  FT/SEC  FT/SEC  FT/SEC  FT/SEC  FT/SEC  FT/SEC  FT/SEC
      -----        ------  ------  ------  ------  ------  ------  ------  ------  ------  ------  ------  ------
         1           8.00    9.00    6.00    5.00    5.00    5.00    4.00    3.00    2.00    2.00    1.00    1.00
         2           6.00   12.00   10.00    8.00    7.00    6.00    4.00    4.00    4.00    2.00    2.00    2.00
         3           4.69    5.35    4.94    3.47    3.09    2.61    2.14    1.70    1.27    0.86    0.46    0.06
         4           2.81    2.42    2.15    2.04    1.74    1.42    1.12    0.83    0.56    0.30    0.04   -0.23
         5           2.76    2.37    1.81    1.56    1.25    0.97    0.73    0.52    0.32    0.14   -0.05   -0.23
         6           2.45    2.14    1.42    1.12    0.85    0.63    0.44    0.29    0.14    0.00   -0.14   -0.27
         7           7.47    5.33    3.17    2.66    2.29    1.65    1.40    0.95    0.75    0.50   -0.33   -0.35


                                       GRADE CORRECTION FACTORS FOR ACCELERATION (USED BY FRESIM ONLY)
                                       ---------------------------------------------------------------

      PERFORMANCE       0      10      20      30      40      50      60      70      80      90     100     110
      INDEX        FT/SEC  FT/SEC  FT/SEC  FT/SEC  FT/SEC  FT/SEC  FT/SEC  FT/SEC  FT/SEC  FT/SEC  FT/SEC  FT/SEC
      -----        ------  ------  ------  ------  ------  ------  ------  ------  ------  ------  ------  ------
         1           0.31    0.31    0.31    0.31    0.31    0.31    0.31    0.31    0.31    0.31    0.31    0.31
         2           0.31    0.31    0.31    0.31    0.31    0.31    0.31    0.31    0.31    0.31    0.31    0.31
         3           0.21    0.21    0.21    0.22    0.23    0.25    0.26    0.27    0.28    0.28    0.30    0.31
         4           0.16    0.15    0.19    0.22    0.24    0.25    0.27    0.28    0.29    0.31    0.31    0.31
         5           0.18    0.17    0.20    0.23    0.25    0.27    0.28    0.30    0.31    0.31    0.31    0.31
         6           0.18    0.18    0.22    0.25    0.27    0.29    0.30    0.30    0.31    0.31    0.31    0.31
         7           0.27    0.27    0.27    0.27    0.27    0.29    0.29    0.30    0.30    0.30    0.30    0.30


                                     GRADE CORRECTION FACTORS FOR FUEL CONSUMPTION (USED BY FRESIM ONLY)
                                     -------------------------------------------------------------------

      PERFORMANCE       0      10      20      30      40      50      60      70      80      90     100     110
      INDEX        FT/SEC  FT/SEC  FT/SEC  FT/SEC  FT/SEC  FT/SEC  FT/SEC  FT/SEC  FT/SEC  FT/SEC  FT/SEC  FT/SEC
      -----        ------  ------  ------  ------  ------  ------  ------  ------  ------  ------  ------  ------
         1           0.31    0.31    0.31    0.31    0.31    0.31    0.31    0.31    0.31    0.31    0.31    0.31
         2           0.31    0.31    0.31    0.31    0.31    0.31    0.31    0.31    0.31    0.31    0.31    0.31
         3           0.26    0.26    0.26    0.28    0.29    0.30    0.30    0.30    0.30    0.30    0.30    0.30
         4           0.11    0.11    0.23    0.27    0.28    0.29    0.30    0.30    0.30    0.30    0.30    0.30
         5           0.16    0.16    0.26    0.28    0.29    0.30    0.30    0.30    0.30    0.30    0.30    0.30
         6           0.20    0.20    0.28    0.29    0.30    0.30    0.30    0.30    0.31    0.31    0.31    0.31
         7           0.27    0.27    0.27    0.27    0.27    0.29    0.29    0.30    0.30    0.30    0.30    0.30
 **** THERE WERE   1 WARNING MESSAGES IN DATA.


                                                INITIALIZATION STATISTICS

          TIME INTERVAL        SUBNETWORK        PRIOR CONTENT      CURRENT CONTENT         PERCENT
             NUMBER               TYPE             (VEHICLES)          (VEHICLES)          DIFFERENCE

                1                NETSIM                 0                  36                10000
                2                NETSIM                36                  77                  113
                3                NETSIM                77                 119                   54
                4                NETSIM               119                 135                   13
                5                NETSIM               135                 135                    0    EQUILIBRIUM ATTAINED
                                            ALL EXISTING SUBNETWORKS REACHED EQUILIBRIUM

              SPILLBACK ON NETSIM  LINK (    6,    2) STARTS    1 SECONDS INTO SIMULATION

              SPILLBACK ON NETSIM  LINK (    5,    2) STARTS   12 SECONDS INTO SIMULATION

              SPILLBACK ON NETSIM  LINK (    5,    2) ENDS     16 SECONDS INTO SIMULATION AFTER A DURATION OF    4 SECONDS

              SPILLBACK ON NETSIM  LINK (    5,    2) STARTS   17 SECONDS INTO SIMULATION

              SPILLBACK ON NETSIM  LINK (    5,    2) ENDS     24 SECONDS INTO SIMULATION AFTER A DURATION OF    7 SECONDS

              SPILLBACK ON NETSIM  LINK (    5,    2) STARTS   25 SECONDS INTO SIMULATION

              SPILLBACK ON NETSIM  LINK (    5,    2) ENDS     50 SECONDS INTO SIMULATION AFTER A DURATION OF   25 SECONDS

              SPILLBACK ON NETSIM  LINK (    5,    2) STARTS   53 SECONDS INTO SIMULATION

              SPILLBACK ON NETSIM  LINK (    5,    2) ENDS     54 SECONDS INTO SIMULATION AFTER A DURATION OF    1 SECONDS

              SPILLBACK ON NETSIM  LINK (    6,    2) ENDS     54 SECONDS INTO SIMULATION AFTER A DURATION OF   53 SECONDS

              SPILLBACK ON NETSIM  LINK (    6,    2) STARTS   69 SECONDS INTO SIMULATION

              SPILLBACK ON NETSIM  LINK (    6,    2) ENDS     70 SECONDS INTO SIMULATION AFTER A DURATION OF    1 SECONDS

              SPILLBACK ON NETSIM  LINK (    6,    2) STARTS   77 SECONDS INTO SIMULATION

              SPILLBACK ON NETSIM  LINK (    6,    2) ENDS     78 SECONDS INTO SIMULATION AFTER A DURATION OF    1 SECONDS

              SPILLBACK ON NETSIM  LINK (    6,    2) STARTS   79 SECONDS INTO SIMULATION

              SPILLBACK ON NETSIM  LINK (    6,    2) ENDS     80 SECONDS INTO SIMULATION AFTER A DURATION OF    1 SECONDS

              SPILLBACK ON NETSIM  LINK (    6,    2) STARTS   89 SECONDS INTO SIMULATION

              SPILLBACK ON NETSIM  LINK (    6,    2) ENDS     90 SECONDS INTO SIMULATION AFTER A DURATION OF    1 SECONDS

              SPILLBACK ON NETSIM  LINK (    6,    2) STARTS  102 SECONDS INTO SIMULATION

              SPILLBACK ON NETSIM  LINK (    6,    2) ENDS    103 SECONDS INTO SIMULATION AFTER A DURATION OF    1 SECONDS

              SPILLBACK ON NETSIM  LINK (    6,    2) STARTS  142 SECONDS INTO SIMULATION

              SPILLBACK ON NETSIM  LINK (    6,    2) ENDS    303 SECONDS INTO SIMULATION AFTER A DURATION OF  161 SECONDS

              SPILLBACK ON NETSIM  LINK (    6,    2) STARTS  307 SECONDS INTO SIMULATION

              SPILLBACK ON NETSIM  LINK (    6,    2) ENDS    308 SECONDS INTO SIMULATION AFTER A DURATION OF    1 SECONDS

              SPILLBACK ON NETSIM  LINK (    6,    2) STARTS  309 SECONDS INTO SIMULATION

              SPILLBACK ON NETSIM  LINK (    6,    2) ENDS    318 SECONDS INTO SIMULATION AFTER A DURATION OF    9 SECONDS

              SPILLBACK ON NETSIM  LINK (    5,    2) STARTS  322 SECONDS INTO SIMULATION

              SPILLBACK ON NETSIM  LINK (    5,    2) ENDS    328 SECONDS INTO SIMULATION AFTER A DURATION OF    6 SECONDS

              SPILLBACK ON NETSIM  LINK (    6,    2) STARTS  328 SECONDS INTO SIMULATION

              SPILLBACK ON NETSIM  LINK (    5,    2) STARTS  329 SECONDS INTO SIMULATION

              SPILLBACK ON NETSIM  LINK (    6,    2) ENDS    331 SECONDS INTO SIMULATION AFTER A DURATION OF    3 SECONDS

              SPILLBACK ON NETSIM  LINK (    6,    2) STARTS  335 SECONDS INTO SIMULATION

              SPILLBACK ON NETSIM  LINK (    6,    2) ENDS    337 SECONDS INTO SIMULATION AFTER A DURATION OF    2 SECONDS

              SPILLBACK ON NETSIM  LINK (    6,    2) STARTS  339 SECONDS INTO SIMULATION

              SPILLBACK ON NETSIM  LINK (    6,    2) ENDS    340 SECONDS INTO SIMULATION AFTER A DURATION OF    1 SECONDS

              SPILLBACK ON NETSIM  LINK (    6,    2) STARTS  342 SECONDS INTO SIMULATION

              SPILLBACK ON NETSIM  LINK (    6,    2) ENDS    343 SECONDS INTO SIMULATION AFTER A DURATION OF    1 SECONDS

              SPILLBACK ON NETSIM  LINK (    6,    2) STARTS  345 SECONDS INTO SIMULATION

              SPILLBACK ON NETSIM  LINK (    6,    2) ENDS    385 SECONDS INTO SIMULATION AFTER A DURATION OF   40 SECONDS

              SPILLBACK ON NETSIM  LINK (    6,    2) STARTS  388 SECONDS INTO SIMULATION

              SPILLBACK ON NETSIM  LINK (    6,    2) ENDS    389 SECONDS INTO SIMULATION AFTER A DURATION OF    1 SECONDS

              SPILLBACK ON NETSIM  LINK (    6,    2) STARTS  391 SECONDS INTO SIMULATION

              SPILLBACK ON NETSIM  LINK (    5,    2) ENDS    392 SECONDS INTO SIMULATION AFTER A DURATION OF   63 SECONDS

              SPILLBACK ON NETSIM  LINK (    6,    2) ENDS    393 SECONDS INTO SIMULATION AFTER A DURATION OF    2 SECONDS

              SPILLBACK ON NETSIM  LINK (    6,    2) STARTS  396 SECONDS INTO SIMULATION

              SPILLBACK ON NETSIM  LINK (    6,    2) ENDS    398 SECONDS INTO SIMULATION AFTER A DURATION OF    2 SECONDS

              SPILLBACK ON NETSIM  LINK (    6,    2) STARTS  407 SECONDS INTO SIMULATION

              SPILLBACK ON NETSIM  LINK (    6,    2) ENDS    410 SECONDS INTO SIMULATION AFTER A DURATION OF    3 SECONDS

              SPILLBACK ON NETSIM  LINK (    6,    2) STARTS  425 SECONDS INTO SIMULATION

              SPILLBACK ON NETSIM  LINK (    6,    2) ENDS    431 SECONDS INTO SIMULATION AFTER A DURATION OF    6 SECONDS

              SPILLBACK ON NETSIM  LINK (    6,    2) STARTS  434 SECONDS INTO SIMULATION

              SPILLBACK ON NETSIM  LINK (    6,    2) ENDS    436 SECONDS INTO SIMULATION AFTER A DURATION OF    2 SECONDS

              SPILLBACK ON NETSIM  LINK (    6,    2) STARTS  437 SECONDS INTO SIMULATION

              SPILLBACK ON NETSIM  LINK (    6,    2) ENDS    438 SECONDS INTO SIMULATION AFTER A DURATION OF    1 SECONDS

              SPILLBACK ON NETSIM  LINK (    6,    2) STARTS  440 SECONDS INTO SIMULATION

              SPILLBACK ON NETSIM  LINK (    6,    2) ENDS    441 SECONDS INTO SIMULATION AFTER A DURATION OF    1 SECONDS

              SPILLBACK ON NETSIM  LINK (    6,    2) STARTS  442 SECONDS INTO SIMULATION

              SPILLBACK ON NETSIM  LINK (    6,    2) ENDS    444 SECONDS INTO SIMULATION AFTER A DURATION OF    2 SECONDS

              SPILLBACK ON NETSIM  LINK (    6,    2) STARTS  445 SECONDS INTO SIMULATION

              SPILLBACK ON NETSIM  LINK (    6,    2) ENDS    447 SECONDS INTO SIMULATION AFTER A DURATION OF    2 SECONDS

              SPILLBACK ON NETSIM  LINK (    6,    2) STARTS  459 SECONDS INTO SIMULATION

              SPILLBACK ON NETSIM  LINK (    6,    2) ENDS    469 SECONDS INTO SIMULATION AFTER A DURATION OF   10 SECONDS

              SPILLBACK ON NETSIM  LINK (    6,    2) STARTS  473 SECONDS INTO SIMULATION

              SPILLBACK ON NETSIM  LINK (    6,    2) ENDS    474 SECONDS INTO SIMULATION AFTER A DURATION OF    1 SECONDS

              SPILLBACK ON NETSIM  LINK (    6,    2) STARTS  475 SECONDS INTO SIMULATION

              SPILLBACK ON NETSIM  LINK (    6,    2) ENDS    479 SECONDS INTO SIMULATION AFTER A DURATION OF    4 SECONDS

              SPILLBACK ON NETSIM  LINK (    6,    2) STARTS  484 SECONDS INTO SIMULATION

              SPILLBACK ON NETSIM  LINK (    6,    2) ENDS    485 SECONDS INTO SIMULATION AFTER A DURATION OF    1 SECONDS

              SPILLBACK ON NETSIM  LINK (    6,    2) STARTS  492 SECONDS INTO SIMULATION

              SPILLBACK ON NETSIM  LINK (    6,    2) ENDS    495 SECONDS INTO SIMULATION AFTER A DURATION OF    3 SECONDS

              SPILLBACK ON NETSIM  LINK (    6,    2) STARTS  496 SECONDS INTO SIMULATION

              SPILLBACK ON NETSIM  LINK (    6,    2) ENDS    498 SECONDS INTO SIMULATION AFTER A DURATION OF    2 SECONDS

              SPILLBACK ON NETSIM  LINK (    6,    2) STARTS  503 SECONDS INTO SIMULATION

              SPILLBACK ON NETSIM  LINK (    6,    2) ENDS    513 SECONDS INTO SIMULATION AFTER A DURATION OF   10 SECONDS

              SPILLBACK ON NETSIM  LINK (    6,    2) STARTS  515 SECONDS INTO SIMULATION

              SPILLBACK ON NETSIM  LINK (    5,    2) STARTS  636 SECONDS INTO SIMULATION

              SPILLBACK ON NETSIM  LINK (    6,    2) ENDS    637 SECONDS INTO SIMULATION AFTER A DURATION OF  122 SECONDS

              SPILLBACK ON NETSIM  LINK (    6,    2) STARTS  638 SECONDS INTO SIMULATION

              SPILLBACK ON NETSIM  LINK (    6,    2) ENDS    641 SECONDS INTO SIMULATION AFTER A DURATION OF    3 SECONDS

              SPILLBACK ON NETSIM  LINK (    6,    2) STARTS  643 SECONDS INTO SIMULATION

              SPILLBACK ON NETSIM  LINK (    5,    2) ENDS    646 SECONDS INTO SIMULATION AFTER A DURATION OF   10 SECONDS

              SPILLBACK ON NETSIM  LINK (    6,    2) ENDS    646 SECONDS INTO SIMULATION AFTER A DURATION OF    3 SECONDS

              SPILLBACK ON NETSIM  LINK (    6,    2) STARTS  648 SECONDS INTO SIMULATION

              SPILLBACK ON NETSIM  LINK (    6,    2) ENDS    649 SECONDS INTO SIMULATION AFTER A DURATION OF    1 SECONDS

              SPILLBACK ON NETSIM  LINK (    5,    2) STARTS  650 SECONDS INTO SIMULATION

              SPILLBACK ON NETSIM  LINK (    6,    2) STARTS  650 SECONDS INTO SIMULATION

              SPILLBACK ON NETSIM  LINK (    6,    2) ENDS    652 SECONDS INTO SIMULATION AFTER A DURATION OF    2 SECONDS

              SPILLBACK ON NETSIM  LINK (    6,    2) STARTS  653 SECONDS INTO SIMULATION

              SPILLBACK ON NETSIM  LINK (    6,    2) ENDS    654 SECONDS INTO SIMULATION AFTER A DURATION OF    1 SECONDS

              SPILLBACK ON NETSIM  LINK (    6,    2) STARTS  655 SECONDS INTO SIMULATION

              SPILLBACK ON NETSIM  LINK (    6,    2) ENDS    722 SECONDS INTO SIMULATION AFTER A DURATION OF   67 SECONDS

              SPILLBACK ON NETSIM  LINK (    6,    2) STARTS  724 SECONDS INTO SIMULATION

              SPILLBACK ON NETSIM  LINK (    6,    2) ENDS    730 SECONDS INTO SIMULATION AFTER A DURATION OF    6 SECONDS

              SPILLBACK ON NETSIM  LINK (    5,    2) ENDS    733 SECONDS INTO SIMULATION AFTER A DURATION OF   83 SECONDS

              SPILLBACK ON NETSIM  LINK (    6,    2) STARTS  734 SECONDS INTO SIMULATION

              SPILLBACK ON NETSIM  LINK (    6,    2) ENDS    738 SECONDS INTO SIMULATION AFTER A DURATION OF    4 SECONDS

              SPILLBACK ON NETSIM  LINK (    6,    2) STARTS  743 SECONDS INTO SIMULATION

              SPILLBACK ON NETSIM  LINK (    6,    2) ENDS    744 SECONDS INTO SIMULATION AFTER A DURATION OF    1 SECONDS

              SPILLBACK ON NETSIM  LINK (    6,    2) STARTS  760 SECONDS INTO SIMULATION

              SPILLBACK ON NETSIM  LINK (    6,    2) ENDS    764 SECONDS INTO SIMULATION AFTER A DURATION OF    4 SECONDS

              SPILLBACK ON NETSIM  LINK (    6,    2) STARTS  769 SECONDS INTO SIMULATION

              SPILLBACK ON NETSIM  LINK (    6,    2) ENDS    776 SECONDS INTO SIMULATION AFTER A DURATION OF    7 SECONDS

              SPILLBACK ON NETSIM  LINK (    6,    2) STARTS  782 SECONDS INTO SIMULATION

              SPILLBACK ON NETSIM  LINK (    6,    2) ENDS    785 SECONDS INTO SIMULATION AFTER A DURATION OF    3 SECONDS

              SPILLBACK ON NETSIM  LINK (    6,    2) STARTS  792 SECONDS INTO SIMULATION

              SPILLBACK ON NETSIM  LINK (    6,    2) ENDS    796 SECONDS INTO SIMULATION AFTER A DURATION OF    4 SECONDS

              SPILLBACK ON NETSIM  LINK (    6,    2) STARTS  797 SECONDS INTO SIMULATION
 *****************  WARNING  ******************
  50 VEHICLES BACKED UP BEHIND NODE 8005
 *****************  WARNING  ******************
  50 VEHICLES BACKED UP BEHIND NODE 8005

                                           CUMULATIVE NETSIM STATISTICS AT TIME 14:24: 0

                       ELAPSED TIME IS  0:15: 0 (  900 SECONDS),    TIME PERIOD  1 ELAPSED TIME IS  900 SECONDS


                                VEHICLE MINUTES    RATIO   MINUTES/MILE    -------- SECONDS / VEHICLE  --------- - AVERAGE VALUES -
                 VEHICLE      MOVE   DELAY   TOTAL MOVE/   TOTAL   DELAY   TOTAL   DELAY  CONTROL  QUEUE   STOP* STOPS  VOL SPEED
    LINK       MILES TRIPS    TIME    TIME    TIME TOTAL    TIME    TIME    TIME    TIME   DELAY   DELAY    TIME   (%)  VPH   MPH
    ----       -----------    -------------------- -----   -------------   ------------------------------------- -------------------

 (8001,   9)           124                                                                                             496
 (   9,   1)   12.12   128    24.2   125.4   149.7  0.16   12.35   10.35    69.7    58.3    55.7    54.4    52.3   80  512     4.9
 (   1,   9)   12.65   143    25.3     4.2    29.5  0.86    2.33    0.33    12.2     1.7     0.0     0.0     0.4    0  572    25.7
 (   1,   4)   11.29   126    22.6     4.2    26.8  0.84    2.37    0.37    12.6     2.0     0.0     0.0     0.3    0  504    25.3
 (   4,   1)   11.84   125    23.7   109.4   133.1  0.18   11.24    9.24    63.4    52.1    50.9    49.4    47.7   69  500     5.3
 (8002,   4)           124                                                                                             496
 (8003,   3)           249                                                                                             996
 (   3,   1)   22.73   240    45.5   603.8   649.3  0.07   28.57   26.57   159.2   148.4   120.7   134.5   128.3   70  960     2.1
 (   1,   3)   11.59   129    23.2     3.7    26.8  0.86    2.32    0.32    12.4     1.7     0.0     0.0     0.3    0  516    25.9
 (   1,   2)   18.76   218    37.5   259.2   296.7  0.13   15.81   13.81    81.3    71.0    65.9    63.5    62.0   64  872     3.8
 (   2,   1)   10.49   120    21.0   123.2   144.2  0.15   13.74   11.74    84.9    74.7    66.3    67.3    65.8   61  480     4.4
 (   2,   7)   12.88   137    25.8     3.6    29.4  0.88    2.28    0.28    12.8     1.6     0.0     0.0     0.3    0  548    26.3
 (   7,   2)   10.13   107    20.3   335.6   355.9  0.06   35.12   33.12   228.5   219.6   202.8   209.1   204.9   79  428     1.7
 (8004,   7)           174                                                                                             696
 (8005,   6)            71                                                                                             284
 (   6,   2)    3.98    70     8.0   354.8   362.7  0.02   91.20   89.20   290.4   284.6   217.4   242.7   233.2   94  280     0.7
 (   2,   6)    7.41   150    14.8     3.5    18.3  0.81    2.48    0.48     7.3     1.4     0.0     0.0     0.2    0  600    24.2
 (   2,   5)    5.85   111    11.7     2.6    14.3  0.82    2.44    0.44     7.7     1.4     0.0     0.0     0.2    0  444    24.6
 (   5,   2)    7.56   133    15.1   247.6   262.7  0.06   34.77   32.77   111.9   105.3    79.5    83.7    81.9   83  532     1.7
 (8006,   5)           124                                                                                             496
SUBNETWORK =  159.27   796    5.31   36.35   41.66  0.13   15.69   13.69    3.16    2.82    2.39    2.52    2.44     104.9     3.8
                             -- VEHICLE - HOURS --                           --- MINUTES / VEHICLE-TRIP ---     PER
                                                                                                               TRIP


                                           CUMULATIVE NETSIM STATISTICS AT TIME 14:24: 0

                       ELAPSED TIME IS  0:15: 0 (  900 SECONDS),    TIME PERIOD  1 ELAPSED TIME IS  900 SECONDS


                 VEH-MINS *    AVERAGE   -- CONGESTION --    ------------     Q U E U E    L E N G T H  (VEHICLE)     ------------       NUMBER
               QUEUE    STOP  OCCUPANCY   STORAGE   PHASE            AVERAGE QUEUE BY LANE **              MAXIMUM QUEUE BY LANE         OF LANE
    LINK        TIME    TIME  (VEHICLE)    (%)    FAILURE     1   2   3   4   5   6   7   8   9      1   2   3   4   5   6   7   8   9   CHANGES
    ----       -------------  ---------  ----------------     -   -   -   -   -   -   -   -   -      -   -   -   -   -   -   -   -   -

 (   9,   1)   117.1   112.3     10.4      9.6        0       4   1   1   2   0   0   0   0   0      9   6   5   9   0   0   0   0   0       126
 (   1,   9)     0.0     0.9      2.4      4.5        0       0   0   0   0   0   0   0   0   0      0   0   0   0   0   0   0   0   0         1
 (   1,   4)     0.0     0.6      2.2      4.1        0       0   0   0   0   0   0   0   0   0      0   0   0   0   0   0   0   0   0         7
 (   4,   1)   103.8   100.1      9.5      7.0        1       2   1   1   0   3   0   0   0   0      7   5   3   1   8   0   0   0   0       176
 (   3,   1)   641.2   611.4     48.1     44.5        4      18   6   6  15   0   0   0   0   0     24  18  16  18   0   0   0   0   0       287
 (   1,   3)     0.0     0.6      2.2      2.1        0       0   0   0   0   0   0   0   0   0      0   0   0   0   0   0   0   0   0         9
 (   1,   2)   231.8   226.3     20.0     19.7        1       4   2   3   7   0   0   0   0   0     16  12  12  18   0   0   0   0   0       199
 (   2,   1)   146.9   143.6     12.4     12.1        3       1   1   1   7   0   0   0   0   0      8   5   4  13   0   0   0   0   0       120
 (   2,   7)     0.0     0.6      2.3      2.1        0       0   0   0   0   0   0   0   0   0      0   0   0   0   0   0   0   0   0         8
 (   7,   2)   672.6   659.2     48.2     44.5        2      13   7   8  17   0   0   0   0   0     23  20  24  23   0   0   0   0   0       210
 (   6,   2)   400.5   384.8     28.2     87.1        6      14  14   0   0   0   0   0   0   0     16  15   0   0   0   0   0   0   0        15
 (   2,   6)     0.0     0.4      1.5      4.7        0       0   0   0   0   0   0   0   0   0      0   0   0   0   0   0   0   0   0         9
 (   2,   5)     0.0     0.4      1.5      4.5        0       0   0   0   0   0   0   0   0   0      0   0   0   0   0   0   0   0   0         7
 (   5,   2)   207.8   203.3     16.3     49.9        3       7   8   0   0   0   0   0   0   0     14  14   0   0   0   0   0   0   0        43
SUBNETWORK =  2521.6  2444.5    205.3     18.4       20                                                                                     1217

                              *  THESE VALUES INCLUDE THE TIME FOR VEHICLES CURRENTLY ON THE LINK.
                              ** AVERAGE QUEUE CALCULATED BASED ON TIME SINCE BEGINNING OF SIMULATION





                                           CUMULATIVE NETSIM STATISTICS AT TIME 14:24: 0

                       ELAPSED TIME IS  0:15: 0 (  900 SECONDS),    TIME PERIOD  1 ELAPSED TIME IS  900 SECONDS


                                                     DISCHARGE BY LANE

                 LANE 1       LANE 2       LANE 3       LANE 4       LANE 5       LANE 6       LANE 7       LANE 8       LANE 9
    LINK        VEH   VPH    VEH   VPH    VEH   VPH    VEH   VPH    VEH   VPH    VEH   VPH    VEH   VPH    VEH   VPH    VEH   VPH 
    ----        ---   ---    ---   ---    ---   ---    ---   ---    ---   ---    ---   ---    ---   ---    ---   ---    ---   ---

(   9,   1)      48   192     24    96     14    56     42   168      0     0      0     0      0     0      0     0      0     0
(   1,   9)      76   304     67   268      0     0      0     0      0     0      0     0      0     0      0     0      0     0
(   1,   4)      62   248     64   256      0     0      0     0      0     0      0     0      0     0      0     0      0     0
(   4,   1)      51   204     17    68     11    44     14    56     32   128      0     0      0     0      0     0      0     0
(   3,   1)      71   284     57   228     76   304     36   144      0     0      0     0      0     0      0     0      0     0
(   1,   3)      45   180     15    60     32   128     37   148      0     0      0     0      0     0      0     0      0     0
(   1,   2)      91   364     31   124     38   152     58   232      0     0      0     0      0     0      0     0      0     0
(   2,   1)      57   228     12    48     26   104     25   100      0     0      0     0      0     0      0     0      0     0
(   2,   7)      31   124     28   112     40   160     38   152      0     0      0     0      0     0      0     0      0     0
(   7,   2)      40   160     19    76     32   128     16    64      0     0      0     0      0     0      0     0      0     0
(   6,   2)      36   144     34   136      0     0      0     0      0     0      0     0      0     0      0     0      0     0
(   2,   6)     108   432     42   168      0     0      0     0      0     0      0     0      0     0      0     0      0     0
(   2,   5)      55   220     56   224      0     0      0     0      0     0      0     0      0     0      0     0      0     0
(   5,   2)      76   304     57   228      0     0      0     0      0     0      0     0      0     0      0     0      0     0




                                                 NETSIM PERSON MEASURES OF EFFECTIVENESS


                           LINK             PERSON              PERSON               DELAY            TRAVEL TIME
                                             MILE                TRIPS             PERSON-MIN          PERSON-MIN

                       (8001,   9)            0.0                  0.0                 0.0                   0.0
                       (   9,   1)           15.8                166.4               163.1                 194.6
                       (   1,   9)           16.5                185.9                 5.4                  38.3
                       (   1,   4)           14.7                163.8                 5.5                  34.8
                       (   4,   1)           15.4                162.5               142.2                 173.0
                       (8002,   4)            0.0                  0.0                 0.0                   0.0
                       (8003,   3)            0.0                  0.0                 0.0                   0.0
                       (   3,   1)           29.5                312.0               785.0                 844.1
                       (   1,   3)           15.1                167.7                 4.7                  34.9
                       (   1,   2)           24.4                283.4               336.9                 385.7
                       (   2,   1)           13.6                156.0               160.1                 187.4
                       (   2,   7)           16.7                178.1                 4.7                  38.2
                       (   7,   2)           13.2                139.1               436.3                 462.6
                       (8004,   7)            0.0                  0.0                 0.0                   0.0


    *** NOTE ***    TIME PERIOD 1 SPECIFIC NETSIM STATISTICS ARE THE SAME AS CUMULATIVE OUTPUT AT THE END OF TIME PERIOD 1.



                                                 NETSIM CUMULATIVE VALUES OF FUEL CONSUMPTION
                                                  FUEL CONSUMPTION BY VEHICLE TYPE (GALLONS)
      LINK            1       2       3       4       5       6       7       8       9      10      11      12      13      14      15      16
 (   9,    1)       1.19    0.00    0.00    0.00    0.72    0.00    0.00    0.00    0.00    0.00    0.00    0.00    0.00    0.00    0.00    0.00
 (   1,    9)       0.77    0.00    0.00    0.00    0.50    0.00    0.00    0.00    0.00    0.00    0.00    0.00    0.00    0.00    0.00    0.00
 (   1,    4)       0.65    0.00    0.00    0.00    0.48    0.00    0.00    0.00    0.00    0.00    0.00    0.00    0.00    0.00    0.00    0.00
 (   4,    1)       1.18    0.00    0.00    0.00    0.59    0.00    0.00    0.00    0.00    0.00    0.00    0.00    0.00    0.00    0.00    0.00
 (   3,    1)       4.87    0.00    0.00    0.00    2.20    0.00    0.00    0.00    0.00    0.00    0.00    0.00    0.00    0.00    0.00    0.00
 (   1,    3)       0.59    0.00    0.00    0.00    0.45    0.00    0.00    0.00    0.00    0.00    0.00    0.00    0.00    0.00    0.00    0.00
 (   1,    2)       2.79    0.00    0.00    0.00    1.18    0.00    0.00    0.00    0.00    0.00    0.00    0.00    0.00    0.00    0.00    0.00
 (   2,    1)       1.59    0.00    0.00    0.00    0.67    0.00    0.00    0.00    0.00    0.00    0.00    0.00    0.00    0.00    0.00    0.00
 (   2,    7)       0.64    0.00    0.00    0.00    0.37    0.00    0.00    0.00    0.00    0.00    0.00    0.00    0.00    0.00    0.00    0.00
 (   7,    2)       4.67    0.00    0.00    0.00    1.86    0.00    0.00    0.00    0.00    0.00    0.00    0.00    0.00    0.00    0.00    0.00
 (   6,    2)       2.65    0.00    0.00    0.00    0.74    0.00    0.00    0.00    0.00    0.00    0.00    0.00    0.00    0.00    0.00    0.00
 (   2,    6)       0.57    0.00    0.00    0.00    0.48    0.00    0.00    0.00    0.00    0.00    0.00    0.00    0.00    0.00    0.00    0.00
 (   2,    5)       0.46    0.00    0.00    0.00    0.37    0.00    0.00    0.00    0.00    0.00    0.00    0.00    0.00    0.00    0.00    0.00
 (   5,    2)       1.72    0.00    0.00    0.00    0.80    0.00    0.00    0.00    0.00    0.00    0.00    0.00    0.00    0.00    0.00    0.00
 SUBNETWORK-       24.34    0.00    0.00    0.00   11.42    0.00    0.00    0.00    0.00    0.00    0.00    0.00    0.00    0.00    0.00    0.00
VEHICLE TYPES 1, 5 = AUTO, VEHICLE TYPES 2, 6, 7, 8 = TRUCK, VEHICLE TYPE 4 = TRANSIT BUS, VEHICLE TYPES 3, 9 = CARPOOL, VEHICLE TYPES 10 - 16 USER DEFINED

                                                  FUEL CONSUMPTION BY VEHICLE TYPE (M.P.G.)
      LINK            1       2       3       4       5       6       7       8       9      10      11      12      13      14      15      16
 (   9,    1)       6.94    0.00    0.00    0.00    4.48    0.00    0.00    0.00    0.00    0.00    0.00    0.00    0.00    0.00    0.00    0.00
 (   1,    9)      11.66    0.00    0.00    0.00    6.54    0.00    0.00    0.00    0.00    0.00    0.00    0.00    0.00    0.00    0.00    0.00
 (   1,    4)      12.12    0.00    0.00    0.00    6.60    0.00    0.00    0.00    0.00    0.00    0.00    0.00    0.00    0.00    0.00    0.00
 (   4,    1)       6.95    0.00    0.00    0.00    5.51    0.00    0.00    0.00    0.00    0.00    0.00    0.00    0.00    0.00    0.00    0.00
 (   3,    1)       3.40    0.00    0.00    0.00    2.78    0.00    0.00    0.00    0.00    0.00    0.00    0.00    0.00    0.00    0.00    0.00
 (   1,    3)      14.04    0.00    0.00    0.00    6.42    0.00    0.00    0.00    0.00    0.00    0.00    0.00    0.00    0.00    0.00    0.00
 (   1,    2)       4.66    0.00    0.00    0.00    4.00    0.00    0.00    0.00    0.00    0.00    0.00    0.00    0.00    0.00    0.00    0.00
 (   2,    1)       4.76    0.00    0.00    0.00    4.29    0.00    0.00    0.00    0.00    0.00    0.00    0.00    0.00    0.00    0.00    0.00
 (   2,    7)      15.76    0.00    0.00    0.00    7.23    0.00    0.00    0.00    0.00    0.00    0.00    0.00    0.00    0.00    0.00    0.00
 (   7,    2)       1.96    0.00    0.00    0.00    1.99    0.00    0.00    0.00    0.00    0.00    0.00    0.00    0.00    0.00    0.00    0.00
 (   6,    2)       1.18    0.00    0.00    0.00    1.18    0.00    0.00    0.00    0.00    0.00    0.00    0.00    0.00    0.00    0.00    0.00
 (   2,    6)       8.44    0.00    0.00    0.00    4.47    0.00    0.00    0.00    0.00    0.00    0.00    0.00    0.00    0.00    0.00    0.00
 (   2,    5)       8.19    0.00    0.00    0.00    4.22    0.00    0.00    0.00    0.00    0.00    0.00    0.00    0.00    0.00    0.00    0.00
 (   5,    2)       2.88    0.00    0.00    0.00    2.62    0.00    0.00    0.00    0.00    0.00    0.00    0.00    0.00    0.00    0.00    0.00
 SUBNETWORK-        4.71    0.00    0.00    0.00    3.73    0.00    0.00    0.00    0.00    0.00    0.00    0.00    0.00    0.00    0.00    0.00
VEHICLE TYPES 1, 5 = AUTO, VEHICLE TYPES 2, 6, 7, 8 = TRUCK, VEHICLE TYPE 4 = TRANSIT BUS, VEHICLE TYPES 3, 9 = CARPOOL, VEHICLE TYPES 10 - 16 USER DEFINED

                                               NETSIM CUMULATIVE VALUES OF EMISSION


                                              VEHICLE EMISSIONS BY VEHICLE TYPE (GRAMS / MILE)
                                                                            HC
      LINK                1       2       3       4       5       6       7       8       9      10      11      12      13      14      15      16
 (   9,    1)           0.34    0.00    0.00    0.00    0.35    0.00    0.00    0.00    0.00    0.00    0.00    0.00    0.00    0.00    0.00    0.00
 (   1,    9)           0.49    0.00    0.00    0.00    0.40    0.00    0.00    0.00    0.00    0.00    0.00    0.00    0.00    0.00    0.00    0.00
 (   1,    4)           0.46    0.00    0.00    0.00    0.40    0.00    0.00    0.00    0.00    0.00    0.00    0.00    0.00    0.00    0.00    0.00
 (   4,    1)           0.34    0.00    0.00    0.00    0.30    0.00    0.00    0.00    0.00    0.00    0.00    0.00    0.00    0.00    0.00    0.00
 (   3,    1)           0.34    0.00    0.00    0.00    0.25    0.00    0.00    0.00    0.00    0.00    0.00    0.00    0.00    0.00    0.00    0.00
 (   1,    3)           0.36    0.00    0.00    0.00    0.41    0.00    0.00    0.00    0.00    0.00    0.00    0.00    0.00    0.00    0.00    0.00
 (   1,    2)           0.53    0.00    0.00    0.00    0.42    0.00    0.00    0.00    0.00    0.00    0.00    0.00    0.00    0.00    0.00    0.00
 (   2,    1)           0.50    0.00    0.00    0.00    0.38    0.00    0.00    0.00    0.00    0.00    0.00    0.00    0.00    0.00    0.00    0.00
 (   2,    7)           0.30    0.00    0.00    0.00    0.35    0.00    0.00    0.00    0.00    0.00    0.00    0.00    0.00    0.00    0.00    0.00
 (   7,    2)           0.43    0.00    0.00    0.00    0.33    0.00    0.00    0.00    0.00    0.00    0.00    0.00    0.00    0.00    0.00    0.00
 (   6,    2)           0.06    0.00    0.00    0.00    0.06    0.00    0.00    0.00    0.00    0.00    0.00    0.00    0.00    0.00    0.00    0.00
 (   2,    6)           0.79    0.00    0.00    0.00    0.63    0.00    0.00    0.00    0.00    0.00    0.00    0.00    0.00    0.00    0.00    0.00
 (   2,    5)           0.81    0.00    0.00    0.00    0.68    0.00    0.00    0.00    0.00    0.00    0.00    0.00    0.00    0.00    0.00    0.00
 (   5,    2)           0.47    0.00    0.00    0.00    0.34    0.00    0.00    0.00    0.00    0.00    0.00    0.00    0.00    0.00    0.00    0.00
 SUBNETWORK-            0.43    0.00    0.00    0.00    0.37    0.00    0.00    0.00    0.00    0.00    0.00    0.00    0.00    0.00    0.00    0.00
VEHICLE TYPES 1, 5 = AUTO, VEHICLE TYPES 2, 6, 7, 8 = TRUCK, VEHICLE TYPE 4 = TRANSIT BUS, VEHICLE TYPES 3, 9 = CARPOOL, VEHICLE TYPES 10 - 16 USER DEFINED

                                               NETSIM CUMULATIVE VALUES OF EMISSION


                                              VEHICLE EMISSIONS BY VEHICLE TYPE (GRAMS / MILE)
                                                                            CO
      LINK                1       2       3       4       5       6       7       8       9      10      11      12      13      14      15      16
 (   9,    1)          28.39    0.00    0.00    0.00   27.02    0.00    0.00    0.00    0.00    0.00    0.00    0.00    0.00    0.00    0.00    0.00
 (   1,    9)          38.21    0.00    0.00    0.00   26.63    0.00    0.00    0.00    0.00    0.00    0.00    0.00    0.00    0.00    0.00    0.00
 (   1,    4)          35.44    0.00    0.00    0.00   26.20    0.00    0.00    0.00    0.00    0.00    0.00    0.00    0.00    0.00    0.00    0.00
 (   4,    1)          28.38    0.00    0.00    0.00   23.50    0.00    0.00    0.00    0.00    0.00    0.00    0.00    0.00    0.00    0.00    0.00
 (   3,    1)          29.46    0.00    0.00    0.00   19.64    0.00    0.00    0.00    0.00    0.00    0.00    0.00    0.00    0.00    0.00    0.00
 (   1,    3)          28.04    0.00    0.00    0.00   27.52    0.00    0.00    0.00    0.00    0.00    0.00    0.00    0.00    0.00    0.00    0.00
 (   1,    2)          40.07    0.00    0.00    0.00   26.55    0.00    0.00    0.00    0.00    0.00    0.00    0.00    0.00    0.00    0.00    0.00
 (   2,    1)          39.05    0.00    0.00    0.00   25.63    0.00    0.00    0.00    0.00    0.00    0.00    0.00    0.00    0.00    0.00    0.00
 (   2,    7)          22.92    0.00    0.00    0.00   23.54    0.00    0.00    0.00    0.00    0.00    0.00    0.00    0.00    0.00    0.00    0.00
 (   7,    2)          40.19    0.00    0.00    0.00   26.47    0.00    0.00    0.00    0.00    0.00    0.00    0.00    0.00    0.00    0.00    0.00
 (   6,    2)          16.67    0.00    0.00    0.00   16.69    0.00    0.00    0.00    0.00    0.00    0.00    0.00    0.00    0.00    0.00    0.00
 (   2,    6)          61.59    0.00    0.00    0.00   39.77    0.00    0.00    0.00    0.00    0.00    0.00    0.00    0.00    0.00    0.00    0.00
 (   2,    5)          63.37    0.00    0.00    0.00   43.25    0.00    0.00    0.00    0.00    0.00    0.00    0.00    0.00    0.00    0.00    0.00
 (   5,    2)          35.32    0.00    0.00    0.00   21.66    0.00    0.00    0.00    0.00    0.00    0.00    0.00    0.00    0.00    0.00    0.00
 SUBNETWORK-           34.80    0.00    0.00    0.00   25.99    0.00    0.00    0.00    0.00    0.00    0.00    0.00    0.00    0.00    0.00    0.00
VEHICLE TYPES 1, 5 = AUTO, VEHICLE TYPES 2, 6, 7, 8 = TRUCK, VEHICLE TYPE 4 = TRANSIT BUS, VEHICLE TYPES 3, 9 = CARPOOL, VEHICLE TYPES 10 - 16 USER DEFINED

                                               NETSIM CUMULATIVE VALUES OF EMISSION


                                              VEHICLE EMISSIONS BY VEHICLE TYPE (GRAMS / MILE)
                                                                            NOx
      LINK                1       2       3       4       5       6       7       8       9      10      11      12      13      14      15      16
 (   9,    1)           1.05    0.00    0.00    0.00    1.67    0.00    0.00    0.00    0.00    0.00    0.00    0.00    0.00    0.00    0.00    0.00
 (   1,    9)           1.57    0.00    0.00    0.00    1.99    0.00    0.00    0.00    0.00    0.00    0.00    0.00    0.00    0.00    0.00    0.00
 (   1,    4)           1.48    0.00    0.00    0.00    1.98    0.00    0.00    0.00    0.00    0.00    0.00    0.00    0.00    0.00    0.00    0.00
 (   4,    1)           1.09    0.00    0.00    0.00    1.44    0.00    0.00    0.00    0.00    0.00    0.00    0.00    0.00    0.00    0.00    0.00
 (   3,    1)           1.14    0.00    0.00    0.00    1.45    0.00    0.00    0.00    0.00    0.00    0.00    0.00    0.00    0.00    0.00    0.00
 (   1,    3)           1.17    0.00    0.00    0.00    2.06    0.00    0.00    0.00    0.00    0.00    0.00    0.00    0.00    0.00    0.00    0.00
 (   1,    2)           1.85    0.00    0.00    0.00    2.20    0.00    0.00    0.00    0.00    0.00    0.00    0.00    0.00    0.00    0.00    0.00
 (   2,    1)           1.61    0.00    0.00    0.00    1.99    0.00    0.00    0.00    0.00    0.00    0.00    0.00    0.00    0.00    0.00    0.00
 (   2,    7)           0.98    0.00    0.00    0.00    1.76    0.00    0.00    0.00    0.00    0.00    0.00    0.00    0.00    0.00    0.00    0.00
 (   7,    2)           1.42    0.00    0.00    0.00    1.83    0.00    0.00    0.00    0.00    0.00    0.00    0.00    0.00    0.00    0.00    0.00
 (   6,    2)           0.38    0.00    0.00    0.00    0.43    0.00    0.00    0.00    0.00    0.00    0.00    0.00    0.00    0.00    0.00    0.00
 (   2,    6)           2.45    0.00    0.00    0.00    3.29    0.00    0.00    0.00    0.00    0.00    0.00    0.00    0.00    0.00    0.00    0.00
 (   2,    5)           2.53    0.00    0.00    0.00    3.53    0.00    0.00    0.00    0.00    0.00    0.00    0.00    0.00    0.00    0.00    0.00
 (   5,    2)           1.83    0.00    0.00    0.00    2.06    0.00    0.00    0.00    0.00    0.00    0.00    0.00    0.00    0.00    0.00    0.00
 SUBNETWORK-            1.42    0.00    0.00    0.00    1.94    0.00    0.00    0.00    0.00    0.00    0.00    0.00    0.00    0.00    0.00    0.00
VEHICLE TYPES 1, 5 = AUTO, VEHICLE TYPES 2, 6, 7, 8 = TRUCK, VEHICLE TYPE 4 = TRANSIT BUS, VEHICLE TYPES 3, 9 = CARPOOL, VEHICLE TYPES 10 - 16 USER DEFINED



 THE HIGHEST NUMBER OF VEHICLES ON THE NETWORK WAS   257 VEHICLES.
 THIS MAXIMUM OCCURRED AT   473 SECONDS.


THE FRACTION OF VEHICLES THAT WERE UNABLE TO COMPLETE THEIR ASSIGNED TURN MOVEMENT WAS    0.08864





                                          -------------------------------
                                          NETWORK-WIDE AVERAGE STATISTICS
                                          -------------------------------

 TOTAL VEHICLE- MILE =     159.27     VEHICLE-HOURS OF:  MOVE TIME =     5.31 , DELAY TIME =    36.35 , TOTAL TIME =    41.66

 AVERAGE SPEED ( MPH)=       3.82     MOVE/TOTAL = 0.13       MINUTES/MILE OF:  DELAY TIME =    13.69 , TOTAL TIME =    15.69

 NETWORK-WIDE STATISTICS FOR SCRIPT PROCESSING
     159.27,     5.31,    36.35,    41.66,       3.82, 0.13,    13.69,    15.69

 TOTAL CPU TIME FOR SIMULATION =        0.52 SECONDS
 TOTAL CPU TIME FOR THIS RUN =        0.52 SECONDS
 ***** THERE WERE   1 WARNING MESSAGES.
 LAST CASE PROCESSED
