



INPUT FILE NAME: X:\Users\CarlosG\Desktop\Sara\CalibrationToolSara\CalibrationTool\SourceCode\GASACalibration\output_20160712_110802_CORSIM Network_GASA\MultiRun\CalibratedModel_4.trf
RUN DATE       : 07/12/16  








                                        TTTTTTTTTTT  RRRRRRRRR      AAAAAAA    FFFFFFFFFFF
                                        TTTTTTTTTTT  RRRRRRRRRR    AAAAAAAAA   FFFFFFFFFFF
                                        TTTTTTTTTTT  RRRRRRRRRRR  AAAAAAAAAAA  FFFFFFFFFFF
                                            TTT      RRR     RRR  AAA     AAA  FFF        
                                            TTT      RRR     RRR  AAA     AAA  FFF        
                                            TTT      RRRRRRRRRRR  AAAAAAAAAAA  FFFFFFF    
                                            TTT      RRRRRRRRRR   AAAAAAAAAAA  FFFFFFF    
                                            TTT      RRR RRR      AAA     AAA  FFF        
                                            TTT      RRR  RRR     AAA     AAA  FFF        
                                            TTT      RRR   RRR    AAA     AAA  FFF        
                                            TTT      RRR    RRR   AAA     AAA  FFF        
                                            TTT      RRR     RRR  AAA     AAA  FFF        




















                                                      VERSION 6.3                 
                                                      RELEASE DATE AUGUST 2012
                                                      BUILD NUMBER 513

                                                      TRAF SIMULATION MODEL

                                                           DEVELOPED FOR

                                                 U. S. DEPARTMENT OF TRANSPORTATION
                                                   FEDERAL HIGHWAY ADMINISTRATION
                                    FHWA OFFICE OF OPERATIONS RESEARCH, DEVELOPMENT AND TECHNOLOGY


                                       CARD FILE LIST
 SEQ.# :----+----1----+----2----+----3----+----4----+----5----+----6----+----7----+----8

     1 :                                       5  142013                           0   1
     2 :       1   0   0  10    10769 0000  0              31409       16147   30109   2
     3 : 900                                                                           3
     4 :           1      60                                                           4
     5 :   0       0   0   0   0   0   0   0   0   0   0   0                           5
     6 :8001   9             2     01              1              40  58      0       11
     7 :   9   1 500         4     01          3   4   2       4  40  58  30  0       11
     8 :   1   9 500         2     01           8001              89  30  30  0       11
     9 :   1   4 500         2     01           8002              40  58  30  0       11
    10 :   4   1 500         5     01          2   9   3       9  63  46  30  0       11
    11 :8002   4             2     01              1              87  27      0       11
    12 :8003   3             2     01              1              46  73      0       11
    13 :   3   1 500         4     01          4   2   9       2  13  90  30  0       11
    14 :   1   3 500         4     01           8003              40  58  30  0       11
    15 :   1   2 470         4     01          5   7   6       7   1  22  30  0       11
    16 :   2   1 470         4     01          9   3   4       3  37  89  30  0       11
    17 :   2   7 500         4     01           8004              80  88  30  0       11
    18 :   7   2 500         4     01          6   1   5       1  59  76  30  0       11
    19 :8004   7             2     01              2              50  68      0       11
    20 :8005   6             2     01              2              50  68      0       11
    21 :   6   2 300         2     01          1   5   7       5  36  63  30  0       11
    22 :   2   6 300         2     01           8005              80  42  30  0       11
    23 :   2   5 300         2     01           8006              50  68  30  0       11
    24 :   5   2 300         2     01          7   6   1       6  44  18  30  0       11
    25 :8006   5             2     01              2              70  88      0       11
    26 :8001   9     100                                                              21
    27 :   9   1  33  33  33   0                                                      21
    28 :   1   9     100                                                              21
    29 :   1   4     100                                                              21
    30 :   4   1  33  33  33   0                                                      21
    31 :8002   4     100                                                              21
    32 :8003   3     100                                                              21
    33 :   3   1  33  33  33   0                                                      21
    34 :   1   3     100                                                              21
    35 :   1   2  33  33  33   0                                                      21
    36 :   2   1  33  33  33   0                                                      21
    37 :   2   7     100                                                              21
    38 :   7   2  33  33  33   0                                                      21
    39 :8004   7     100                                                              21
    40 :8005   6     100                                                              21
    41 :   6   2  33  33  33   0                                                      21
    42 :   2   6     100                                                              21
    43 :   2   5     100                                                              21
    44 :   5   2  33  33  33   0                                                      21
    45 :8006   5     100                                                              21
    46 :   1   0   9   2   4   3      90   5  20  90   5  20                          35
    47 :   2   0   6   7   5   1      60   5  20  60   5  20  60   5  20  60   5  20  35
    48 :   3    8003   1                                                              35
    49 :   4       18002                                                              35
    50 :   5       28006                                                              35
 SEQ.# :----+----1----+----2----+----3----+----4----+----5----+----6----+----7----+----8


                                   CARD FILE LIST (CONT.)
 SEQ.# :----+----1----+----2----+----3----+----4----+----5----+----6----+----7----+----8

    51 :   6    8005   2                                                              35
    52 :   7       28004                                                              35
    53 :   9    8001   1                                                              35
    54 :   1 1212 0202 2222 2121 2020 2222                                            36
    55 :   2 1212 0202 2222 2221 2220 2222 2121 2020 2222 4242 0202 2222              36
    56 :   3 11                                                                       36
    57 :   4 11                                                                       36
    58 :   5 11                                                                       36
    59 :   6 11                                                                       36
    60 :   7 11                                                                       36
    61 :   9 11                                                                       36
    62 :8001   9 500   0   0  100                                                     50
    63 :8002   4 500   0   0  100                                                     50
    64 :8003   31000   0   0  100                                                     50
    65 :8004   7 700   0   0  100                                                     50
    66 :8005   6 500   0   0  100                                                     50
    67 :8006   5 500   0   0  100                                                     50
    68 :  57  43                                                                     153
    69 :   0                                                                         170
    70 :8001     226    1268                                                         195
    71 :8002    1375    1272                                                         195
    72 :8003     790    1861                                                         195
    73 :8004     807     223                                                         195
    74 :8005     429     804                                                         195
    75 :8006    1172     800                                                         195
    76 :   1     800    1270                                                         195
    77 :   2     800     800                                                         195
    78 :   3     800    1770                                                         195
    79 :   4    1300    1270                                                         195
    80 :   5    1100     800                                                         195
    81 :   6     500     800                                                         195
    82 :   7     800     300                                                         195
    83 :   9     300    1270                                                         195
    84 :   1   0   0                                                                 210
 SEQ.# :----+----1----+----2----+----3----+----4----+----5----+----6----+----7----+----8


                                                        TRAF SIMULATION MODEL

                                                           DEVELOPED FOR

                                                 U. S. DEPARTMENT OF TRANSPORTATION
                                                   FEDERAL HIGHWAY ADMINISTRATION
                                    FHWA OFFICE OF OPERATIONS RESEARCH, DEVELOPMENT AND TECHNOLOGY




                                                   DATE =  5/14/2013
                                                   USER =                                     
                                                 AGENCY =                         

                                                        RUN CONTROL DATA


                      VALUE                         RUN PARAMETERS AND OPTIONS

                          0     RUN IDENTIFICATION NUMBER
                          1     RUN TYPE CODE = ( 1, 2, 3) TO RUN (SIMULATION, ASSIGNMENT, BOTH)
                                                (-1,-2,-3) TO CHECK (SIMULATION, ASSIGNMENT, BOTH) ONLY

                                NETSIM ENVIRONMENTAL OPTIONS
                                ----------------------------
                          0     FUEL/EMISSION RATE TABLES ARE NOT PRINTED                     
                          0     SIMULATION:  PERFORMED                              ENVIRONMENTAL MEASURES:  CALCULATED          
                                RATE TABLES: EMBEDDED                               TRAJECTORY FILE:         NOT WRITTEN         
                          0     CODE   = (0,1,2) FOR UNIFORM DISTRIBUTION, NORMAL DISTRIBUTION, ERLANG DISTRIBUTION
                          0     INITIALIZATION CODE (0,1) = (DO NOT, DO) FORCE FULL INITIALIZATION PERIOD
                          0     INPUT  UNITS CODE = (0,1) IF INPUT IS IN (ENGLISH, METRIC) UNITS
                          0     OUTPUT UNITS CODE = (0,1,2,3) IF OUTPUT IS IN (SAME AS INPUT, ENGLISH, METRIC, BOTH) UNITS
                       1409     CLOCK TIME AT START OF SIMULATION (HHMM)
                          0     SIGNAL TRANSITION CODE = (0,1,2,3) IF(NO, IMMEDIATE, 2-CYCLE, 3-CYCLE) TRANSITION WAS REQUESTED
                      30109     RANDOM NUMBER SEED
                      16147     RANDOM NUMBER SEED TO GENERATE TRAFFIC STREAM FOR NETSIM OR LEVEL I SIMULATION
                      10769     RANDOM NUMBER SEED TO GENERATE EMISSION HEADWAYS FOR NETSIM SIMULATION
                        900     DURATION (SEC) OF TIME PERIOD NO.  1
                         60     LENGTH OF A TIME INTERVAL, SECONDS
                         10     MAXIMUM INITIALIZATION TIME, NUMBER OF TIME INTERVALS
                          0     NUMBER OF TIME INTERVALS BETWEEN SUCCESSIVE STANDARD OUTPUTS
                          0     TIME INTERMEDIATE OUTPUT WILL BEGIN AT INTERVALS OF    0 SECS. FOR    0 SECS. FOR MICROSCOPIC MODELS
                          0     NETSIM MOVEMENT-SPECIFIC OUTPUT CODE = (0,1) (IF NOT, IF) REQUESTED FOR NETSIM SUBNETWORK


***********************************************************************************************************************************

                                                 TIME PERIOD   1 - NETSIM DATA

***********************************************************************************************************************************


                                                            NETSIM LINKS


                      -LANES-         -CHANNEL-

                        F               C
                        U               U                                  LOST  Q DIS   FREE                LANE
              LENGTH    L PKT GRD LINK  R         DESTINATION NODE   OPP.  TIME  HDWY.   SPEED    RTOR PED  ALIGN    STREET
     LINK     FT / M    L L R PCT TYPE  B234567  LEFT THRU RGHT DIAG NODE  SEC   SEC    MPH/KMPH  CODE CODE -MENT     NAME

 (8001,   9)    0/   0  2 0 0  0   1    0000000     0    1    0    0    0  4.0    5.8     0/  0     0   0    1-1*              
 (   9,   1)  500/ 152  4 0 0  0   1    0000000     3    4    2    0    4  4.0    5.8    30/ 48     0   0    1-1*              
 (   1,   9)  500/ 152  2 0 0  0   1    0000000     0 8001    0    0    0  8.9    3.0    30/ 48     0   0    1-1*              
 (   1,   4)  500/ 152  2 0 0  0   1    0000000     0 8002    0    0    0  4.0    5.8    30/ 48     0   0    1-1*              
 (   4,   1)  500/ 152  5 0 0  0   1    0000000     2    9    3    0    9  6.3    4.6    30/ 48     0   0    1-1*              
 (8002,   4)    0/   0  2 0 0  0   1    0000000     0    1    0    0    0  8.7    2.7     0/  0     0   0    1-1*              
 (8003,   3)    0/   0  2 0 0  0   1    0000000     0    1    0    0    0  4.6    7.3     0/  0     0   0    1-1*              
 (   3,   1)  500/ 152  4 0 0  0   1    0000000     4    2    9    0    2  1.3    9.0    30/ 48     0   0    1-1*              
 (   1,   3)  500/ 152  4 0 0  0   1    0000000     0 8003    0    0    0  4.0    5.8    30/ 48     0   0    1-1*              
*****   WARNING   -  203 - Unusual start-up lost time, 1, on link (1,2).
 
 (   1,   2)  470/ 143  4 0 0  0   1    0000000     5    7    6    0    7  0.1    2.2    30/ 48     0   0    1-1*              
 (   2,   1)  470/ 143  4 0 0  0   1    0000000     9    3    4    0    3  3.7    8.9    30/ 48     0   0    1-1*              
 (   2,   7)  500/ 152  4 0 0  0   1    0000000     0 8004    0    0    0  8.0    8.8    30/ 48     0   0    1-1*              
 (   7,   2)  500/ 152  4 0 0  0   1    0000000     6    1    5    0    1  5.9    7.6    30/ 48     0   0    1-1*              
 (8004,   7)    0/   0  2 0 0  0   1    0000000     0    2    0    0    0  5.0    6.8     0/  0     0   0    1-1*              
 (8005,   6)    0/   0  2 0 0  0   1    0000000     0    2    0    0    0  5.0    6.8     0/  0     0   0    1-1*              
 (   6,   2)  300/  91  2 0 0  0   1    0000000     1    5    7    0    5  3.6    6.3    30/ 48     0   0    1-1*              
 (   2,   6)  300/  91  2 0 0  0   1    0000000     0 8005    0    0    0  8.0    4.2    30/ 48     0   0    1-1*              
 (   2,   5)  300/  91  2 0 0  0   1    0000000     0 8006    0    0    0  5.0    6.8    30/ 48     0   0    1-1*              
 (   5,   2)  300/  91  2 0 0  0   1    0000000     7    6    1    0    6  4.4    1.8    30/ 48     0   0    1-1*              
 (8006,   5)    0/   0  2 0 0  0   1    0000000     0    2    0    0    0  7.0    8.8     0/  0     0   0    1-1*              


                                             * INDICATES DEFAULT VALUES WERE SPECIFIED



              LINK TYPE                 LANE CHANNELIZATION                    RTOR                    PEDESTRIAN
                                               CODES                           CODES                      CODES

          IDENTIFIES THE               0  UNRESTRICTED                 0  RTOR PERMITTED           0  NO PEDESTRIANS
        DISTRIBUTION USED FOR          1  LEFT TURNS ONLY              1  RTOR PROHIBITED          1  LIGHT
        QUEUE DISCHARGE AND            2  BUSES ONLY                                               2  MODERATE
        START-UP LOST TIME             3  CLOSED                                                   3  HEAVY
        CHARACTERISTICS.               4  RIGHT TURNS ONLY
                                       5  CAR - POOLS
                                       6  CAR - POOLS + BUSES
                                       7  RIGHT TURNS + RIGHT DIAGONAL AND/OR THROUGH
                                       8  LEFT TURNS + LEFT DIAGONAL AND/OR THROUGH
                                       9  ALL PERMITTED MOVEMENTS WITH RESPECT TO
                                          THE GEOMETRY AND ADJACENT LANE CHANNELIZATIONS
                                       D  DIAGONAL TRAFFIC ONLY
                                       T  THROUGH TRAFFIC ONLY

                  TOTAL LINKS:   20
                  TOTAL NON-ENTRY NODES:    8 (ALLOWED: 8999)



                                                      NETSIM TURNING MOVEMENT DATA

                               TURN MOVEMENT PERCENTAGES            TURN MOVEMENT POSSIBLE           POCKET LENGTH (IN FEET/METERS)
          LINK                LEFT THROUGH RIGHT DIAGONAL         LEFT THROUGH RIGHT DIAGONAL             LEFT          RIGHT

      (8001,   9)              0.0  100.0    0.0    0.0            NO    YES    NO     NO                0/    0       0/    0
      (   9,   1)             33.3   33.3   33.3    0.0            YES   YES    YES    NO                0/    0       0/    0
      (   1,   9)              0.0  100.0    0.0    0.0            NO    YES    NO     NO                0/    0       0/    0
      (   1,   4)              0.0  100.0    0.0    0.0            NO    YES    NO     NO                0/    0       0/    0
      (   4,   1)             33.3   33.3   33.3    0.0            YES   YES    YES    NO                0/    0       0/    0
      (8002,   4)              0.0  100.0    0.0    0.0            NO    YES    NO     NO                0/    0       0/    0
      (8003,   3)              0.0  100.0    0.0    0.0            NO    YES    NO     NO                0/    0       0/    0
      (   3,   1)             33.3   33.3   33.3    0.0            YES   YES    YES    NO                0/    0       0/    0
      (   1,   3)              0.0  100.0    0.0    0.0            NO    YES    NO     NO                0/    0       0/    0
      (   1,   2)             33.3   33.3   33.3    0.0            YES   YES    YES    NO                0/    0       0/    0
      (   2,   1)             33.3   33.3   33.3    0.0            YES   YES    YES    NO                0/    0       0/    0
      (   2,   7)              0.0  100.0    0.0    0.0            NO    YES    NO     NO                0/    0       0/    0
      (   7,   2)             33.3   33.3   33.3    0.0            YES   YES    YES    NO                0/    0       0/    0
      (8004,   7)              0.0  100.0    0.0    0.0            NO    YES    NO     NO                0/    0       0/    0
      (8005,   6)              0.0  100.0    0.0    0.0            NO    YES    NO     NO                0/    0       0/    0
      (   6,   2)             33.3   33.3   33.3    0.0            YES   YES    YES    NO                0/    0       0/    0
      (   2,   6)              0.0  100.0    0.0    0.0            NO    YES    NO     NO                0/    0       0/    0
      (   2,   5)              0.0  100.0    0.0    0.0            NO    YES    NO     NO                0/    0       0/    0
      (   5,   2)             33.3   33.3   33.3    0.0            YES   YES    YES    NO                0/    0       0/    0
      (8006,   5)              0.0  100.0    0.0    0.0            NO    YES    NO     NO                0/    0       0/    0


                                  SPECIFIED FIXED-TIME SIGNAL CONTROL, AND SIGN CONTROL, CODES


                                                            NODE    1
                             OFFSET   0 SEC                                           CYCLE LENGTH 230 SEC


                INTERVAL    DURATION     +- - - - - - - - - - - - - - - APPROACHES - - - - - - - - - - - - - - - +
                 NUMBER   (SEC)  (PCT)   (   9,   1)    (   2,   1)    (   4,   1)    (   3,   1)
                    1       90     39         1              2              1              2
                    2        5      2         0              2              0              2
                    3       20      8         2              2              2              2
                    4       90     39         2              1              2              1
                    5        5      2         2              0              2              0
                    6       20      8         2              2              2              2


                                                            NODE    2
                             OFFSET   0 SEC                                           CYCLE LENGTH 340 SEC


                INTERVAL    DURATION     +- - - - - - - - - - - - - - - APPROACHES - - - - - - - - - - - - - - - +
                 NUMBER   (SEC)  (PCT)   (   6,   2)    (   7,   2)    (   5,   2)    (   1,   2)
                    1       60     17         1              2              1              2
                    2        5      1         0              2              0              2
                    3       20      5         2              2              2              2
                    4       60     17         2              2              2              1
                    5        5      1         2              2              2              0
                    6       20      5         2              2              2              2
                    7       60     17         2              1              2              1
                    8        5      1         2              0              2              0
                    9       20      5         2              2              2              2
                   10       60     17         4              2              4              2
                   11        5      1         0              2              0              2
                   12       20      5         2              2              2              2


                                                 NODE    3 IS UNDER SIGN CONTROL


                INTERVAL    DURATION     +- - - - - - - - - - - - - - - APPROACHES - - - - - - - - - - - - - - - +
                 NUMBER   (SEC)  (PCT)   (8003,   3)    (   1,   3)
                    1        0    100         1              1


                                                 NODE    4 IS UNDER SIGN CONTROL


                INTERVAL    DURATION     +- - - - - - - - - - - - - - - APPROACHES - - - - - - - - - - - - - - - +
                 NUMBER   (SEC)  (PCT)   (   1,   4)    (8002,   4)
                    1        0    100         1              1


                                                 NODE    5 IS UNDER SIGN CONTROL


                INTERVAL    DURATION     +- - - - - - - - - - - - - - - APPROACHES - - - - - - - - - - - - - - - +
                 NUMBER   (SEC)  (PCT)   (   2,   5)    (8006,   5)
                    1        0    100         1              1


                                                 NODE    6 IS UNDER SIGN CONTROL


                INTERVAL    DURATION     +- - - - - - - - - - - - - - - APPROACHES - - - - - - - - - - - - - - - +
                 NUMBER   (SEC)  (PCT)   (8005,   6)    (   2,   6)
                    1        0    100         1              1





                                                 NODE    7 IS UNDER SIGN CONTROL


                INTERVAL    DURATION     +- - - - - - - - - - - - - - - APPROACHES - - - - - - - - - - - - - - - +
                 NUMBER   (SEC)  (PCT)   (   2,   7)    (8004,   7)
                    1        0    100         1              1


                                                 NODE    9 IS UNDER SIGN CONTROL


                INTERVAL    DURATION     +- - - - - - - - - - - - - - - APPROACHES - - - - - - - - - - - - - - - +
                 NUMBER   (SEC)  (PCT)   (8001,   9)    (   1,   9)
                    1        0    100         1              1


                                                   INTERPRETATION OF SIGNAL CODES


                                           0          YIELD OR AMBER

                                           1          GREEN

                                           2          RED

                                           3          RED WITH GREEN RIGHT ARROW

                                           4          RED WITH GREEN LEFT ARROW

                                           5          STOP

                                           6          RED WITH GREEN DIAGONAL ARROW

                                           7          NO TURNS-GREEN THRU ARROW

                                           8          RED WITH LEFT AND RIGHT GREEN ARROW

                                           9          NO LEFT TURN-GREEN THRU AND RIGHT


                                     TRAFFIC CONTROL TABLE - SIGNS AND FIXED TIME SIGNALS

     CONTROL CODES  GO   = PROTECTED
                    NOGO = NOT PERMITTED
                    AMBR = AMBER
                    PERM = PERMITTED NOT PROTECTED
                    PROT = PROTECTED
                    STOP = STOP SIGN
                    YLD  = YIELD SIGN



       NODE    1      FIXED TIME CONTROL       OFFSET =   0 SECONDS      CYCLE LENGTH = 230 SECONDS

 INTERVAL DURATION    -------------------------------------------   APPROACHES   --------------------------------------------
                          (   9,   1)          (   2,   1)          (   4,   1)          (   3,   1)
                      LEFT THRU RITE DIAG  LEFT THRU RITE DIAG  LEFT THRU RITE DIAG  LEFT THRU RITE DIAG  LEFT THRU RITE DIAG  
       1       90     PERM  GO   GO        NOGO NOGO NOGO       PERM  GO   GO        NOGO NOGO NOGO     
       2        5     AMBR AMBR AMBR       NOGO NOGO NOGO       AMBR AMBR AMBR       NOGO NOGO NOGO     
       3       20     NOGO NOGO NOGO       NOGO NOGO NOGO       NOGO NOGO NOGO       NOGO NOGO NOGO     
       4       90     NOGO NOGO NOGO       PERM  GO   GO        NOGO NOGO NOGO       PERM  GO   GO      
       5        5     NOGO NOGO NOGO       AMBR AMBR AMBR       NOGO NOGO NOGO       AMBR AMBR AMBR     
       6       20     NOGO NOGO NOGO       NOGO NOGO NOGO       NOGO NOGO NOGO       NOGO NOGO NOGO     



       NODE    2      FIXED TIME CONTROL       OFFSET =   0 SECONDS      CYCLE LENGTH = 340 SECONDS

 INTERVAL DURATION    -------------------------------------------   APPROACHES   --------------------------------------------
                          (   6,   2)          (   7,   2)          (   5,   2)          (   1,   2)
                      LEFT THRU RITE DIAG  LEFT THRU RITE DIAG  LEFT THRU RITE DIAG  LEFT THRU RITE DIAG  LEFT THRU RITE DIAG  
       1       60     PERM  GO   GO        NOGO NOGO NOGO       PERM  GO   GO        NOGO NOGO NOGO     
       2        5     AMBR AMBR AMBR       NOGO NOGO NOGO       AMBR AMBR AMBR       NOGO NOGO NOGO     
       3       20     NOGO NOGO NOGO       NOGO NOGO NOGO       NOGO NOGO NOGO       NOGO NOGO NOGO     
       4       60     NOGO NOGO NOGO       NOGO NOGO NOGO       NOGO NOGO NOGO       PROT  GO   GO      
       5        5     NOGO NOGO NOGO       NOGO NOGO NOGO       NOGO NOGO NOGO       AMBR AMBR AMBR     
       6       20     NOGO NOGO NOGO       NOGO NOGO NOGO       NOGO NOGO NOGO       NOGO NOGO NOGO     
       7       60     NOGO NOGO NOGO       PERM  GO   GO        NOGO NOGO NOGO       PERM  GO   GO      
       8        5     NOGO NOGO NOGO       AMBR AMBR AMBR       NOGO NOGO NOGO       AMBR AMBR AMBR     
       9       20     NOGO NOGO NOGO       NOGO NOGO NOGO       NOGO NOGO NOGO       NOGO NOGO NOGO     
      10       60     PROT NOGO NOGO       NOGO NOGO NOGO       PROT NOGO NOGO       NOGO NOGO NOGO     
      11        5     AMBR NOGO NOGO       NOGO NOGO NOGO       AMBR NOGO NOGO       NOGO NOGO NOGO     
      12       20     NOGO NOGO NOGO       NOGO NOGO NOGO       NOGO NOGO NOGO       NOGO NOGO NOGO     



       NODE    3      SIGN CONTROL

 INTERVAL DURATION    -------------------------------------------   APPROACHES   --------------------------------------------
                          (8003,   3)          (   1,   3)
                      LEFT THRU RITE DIAG  LEFT THRU RITE DIAG  LEFT THRU RITE DIAG  LEFT THRU RITE DIAG  LEFT THRU RITE DIAG  
       1        0           GO                   GO           



       NODE    4      SIGN CONTROL

 INTERVAL DURATION    -------------------------------------------   APPROACHES   --------------------------------------------
                          (   1,   4)          (8002,   4)
                      LEFT THRU RITE DIAG  LEFT THRU RITE DIAG  LEFT THRU RITE DIAG  LEFT THRU RITE DIAG  LEFT THRU RITE DIAG  
       1        0           GO                   GO           



       NODE    5      SIGN CONTROL

 INTERVAL DURATION    -------------------------------------------   APPROACHES   --------------------------------------------
                          (   2,   5)          (8006,   5)
                      LEFT THRU RITE DIAG  LEFT THRU RITE DIAG  LEFT THRU RITE DIAG  LEFT THRU RITE DIAG  LEFT THRU RITE DIAG  
       1        0           GO                   GO           



       NODE    6      SIGN CONTROL

 INTERVAL DURATION    -------------------------------------------   APPROACHES   --------------------------------------------
                          (8005,   6)          (   2,   6)
                      LEFT THRU RITE DIAG  LEFT THRU RITE DIAG  LEFT THRU RITE DIAG  LEFT THRU RITE DIAG  LEFT THRU RITE DIAG  
       1        0           GO                   GO           



       NODE    7      SIGN CONTROL

 INTERVAL DURATION    -------------------------------------------   APPROACHES   --------------------------------------------
                          (   2,   7)          (8004,   7)
                      LEFT THRU RITE DIAG  LEFT THRU RITE DIAG  LEFT THRU RITE DIAG  LEFT THRU RITE DIAG  LEFT THRU RITE DIAG  
       1        0           GO                   GO           



       NODE    9      SIGN CONTROL

 INTERVAL DURATION    -------------------------------------------   APPROACHES   --------------------------------------------
                          (8001,   9)          (   1,   9)
                      LEFT THRU RITE DIAG  LEFT THRU RITE DIAG  LEFT THRU RITE DIAG  LEFT THRU RITE DIAG  LEFT THRU RITE DIAG  
       1        0           GO                   GO           


                                                ENTRY LINK VOLUMES

                      LINK              FLOW RATE      TRUCKS      CAR POOLS    HOV VIOLATORS
                                        (VEH/HOUR)    (PERCENT)    (PERCENT)     (PERCENT)

                   (8001,   9)              500            0            0          1.00
                   (8002,   4)              500            0            0          1.00
                   (8003,   3)             1000            0            0          1.00
                   (8004,   7)              700            0            0          1.00
                   (8005,   6)              500            0            0          1.00
                   (8006,   5)              500            0            0          1.00


                                                NETSIM VEHICLE TYPE SPECIFICATIONS

                     VEHICLE      LENGTH      Q DSCHG HDWY                  FLEET COMPONENT PERCENTAGES    PERF.
                      TYPE     FEET/METERS    FACTOR (PCT)    AVG. OCCUP.    AUTO   TRUCK  CARPOOL  BUS    INDEX
                       1**     16.0/  4.9         100            1.3          75      0      0      0        2
                       2**     35.0/ 10.7         120            1.2           0    100      0      0        3
                       3**     16.0/  4.9         100            2.5           0      0    100      0        2
                       4**     40.0/ 12.2         120           25.0           0      0      0    100        7
                       5**     14.0/  4.3         100            1.3          25      0      0      0        1
                       6**     53.0/ 16.2         120            1.2           0      0      0      0        4
                       7**     53.0/ 16.2         120            1.2           0      0      0      0        5
                       8**     64.0/ 19.5         120            1.2           0      0      0      0        6
                       9**     14.0/  4.3         100            2.5           0      0      0      0        1
 
                             ** INDICATES THAT ALL PARAMETERS FOR VEHICLE TYPE ASSUME DEFAULT VALUES


                                                   DEFAULT  LINK  GEOMETRIC  DATA

                                           WIDTH OF LANES                          12  FEET

                                           LONGITUDINAL DISTANCE FROM THE STOP       4 FEET
                                           LINE TO THE NEAR CURB

                                           FORWARD SIGHT DISTANCE AT STOP LINE   1000  FEET



                                                            LANE   CHANGE   DATA

                                          PARAMETERS                      VALUE                  UNITS
                                                                    ENGLISH / METRIC 

         DURATION OF LANE CHANGE MANEUVER                              3*                     SECONDS

         MEAN DRIVER REACTION TIME                                    10*                     TENTHS OF A SECOND

         TIME REQUIRED FOR SUCCESSIVE LANE CHANGES                    20*                     TENTHS OF A SECOND

         DECELERATION AT BEGINNING OF LANE CHANGE MANEUVER             5*   /      2          FEET [METERS] / SECOND**2

         DIFFERENCE IN VEHICLE'S DECELERATION OVER THE DISTANCE
            BETWEEN ITS POSITION WHEN IT BEGINS TO RESPOND TO AN
            OBSTRUCTION AND THE POSITION OF THE OBSTRUCTION -

                 FOR MANDATORY LANE CHANGE:                           10*   /      3          FEET [METERS] / SECOND**2
                 FOR DISCRETIONARY LANE CHANGE:                        5*   /      2          FEET [METERS] / SECOND**2

         PANIC DECELERATION RATE OF LEAD VEHICLE FOR
         COMPUTATION OF CAR-FOLLOWING LAW                             12*   /      4          FEET [METERS] / SECOND**2

         PANIC DECELERATION RATE OF FOLLOWER VEHICLE FOR
         COMPUTATION OF CAR-FOLLOWING LAW                             12*   /      4          FEET [METERS] / SECOND**2

         DRIVER TYPE FACTOR USED TO COMPUTE DRIVER AGGRESSIVENESS     25*

         URGENCY THRESHOLD                                             2*   /      1          10 * SECONDS**2 / FEET [METERS]

         SAFETY FACTOR FOR COMPUTATION OF PERCEIVED RISK OF LANE
         CHANGE                                                        8*                     FACTOR * 10

         PERCENT OF DRIVERS WHO COOPERATE WITH A LANE CHANGER         50*                     %

         HEADWAY BELOW WHICH ALL DRIVERS WILL ATTEMPT TO CHANGE
         LANES                                                        20*                     TENTHS OF A SECOND

         HEADWAY ABOVE WHICH NO DRIVERS WILL ATTEMPT TO CHANGE
         LANES                                                        50*                     TENTHS OF A SECOND

         FORWARD DISTANCE SCANNED BY DRIVER FOR A TURN MOVEMENT /
         BUS STATION IN ORDER TO ASSESS NEED FOR A LANE CHANGE       300*   /     91          FEET / [METERS]

                                              * INDICATES DEFAULT VALUES WERE SPECIFIED


                                                  EMBEDDED DATA CHANGES IN EFFECT

                 SCALAR OR                                                                                       CHANGED BY
                  ARRAY                                      C O N T E N T S                                     CARD TYPE
                  ------     - - - - - - - - - - - - - - - - - - - - - - - - - - - - - - - - - - - - - - - -     ----------

                 DRVFAM           57      43                                                               153


                                              MAXIMUM ACCELERATION TABLE
                                              --------------------------

      PERFORMANCE       0      10      20      30      40      50      60      70      80      90     100     110
      INDEX        FT/SEC  FT/SEC  FT/SEC  FT/SEC  FT/SEC  FT/SEC  FT/SEC  FT/SEC  FT/SEC  FT/SEC  FT/SEC  FT/SEC
      -----        ------  ------  ------  ------  ------  ------  ------  ------  ------  ------  ------  ------
         1           8.00    9.00    6.00    5.00    5.00    5.00    4.00    3.00    2.00    2.00    1.00    1.00
         2           6.00   12.00   10.00    8.00    7.00    6.00    4.00    4.00    4.00    2.00    2.00    2.00
         3           4.69    5.35    4.94    3.47    3.09    2.61    2.14    1.70    1.27    0.86    0.46    0.06
         4           2.81    2.42    2.15    2.04    1.74    1.42    1.12    0.83    0.56    0.30    0.04   -0.23
         5           2.76    2.37    1.81    1.56    1.25    0.97    0.73    0.52    0.32    0.14   -0.05   -0.23
         6           2.45    2.14    1.42    1.12    0.85    0.63    0.44    0.29    0.14    0.00   -0.14   -0.27
         7           7.47    5.33    3.17    2.66    2.29    1.65    1.40    0.95    0.75    0.50   -0.33   -0.35


                                       GRADE CORRECTION FACTORS FOR ACCELERATION (USED BY FRESIM ONLY)
                                       ---------------------------------------------------------------

      PERFORMANCE       0      10      20      30      40      50      60      70      80      90     100     110
      INDEX        FT/SEC  FT/SEC  FT/SEC  FT/SEC  FT/SEC  FT/SEC  FT/SEC  FT/SEC  FT/SEC  FT/SEC  FT/SEC  FT/SEC
      -----        ------  ------  ------  ------  ------  ------  ------  ------  ------  ------  ------  ------
         1           0.31    0.31    0.31    0.31    0.31    0.31    0.31    0.31    0.31    0.31    0.31    0.31
         2           0.31    0.31    0.31    0.31    0.31    0.31    0.31    0.31    0.31    0.31    0.31    0.31
         3           0.21    0.21    0.21    0.22    0.23    0.25    0.26    0.27    0.28    0.28    0.30    0.31
         4           0.16    0.15    0.19    0.22    0.24    0.25    0.27    0.28    0.29    0.31    0.31    0.31
         5           0.18    0.17    0.20    0.23    0.25    0.27    0.28    0.30    0.31    0.31    0.31    0.31
         6           0.18    0.18    0.22    0.25    0.27    0.29    0.30    0.30    0.31    0.31    0.31    0.31
         7           0.27    0.27    0.27    0.27    0.27    0.29    0.29    0.30    0.30    0.30    0.30    0.30


                                     GRADE CORRECTION FACTORS FOR FUEL CONSUMPTION (USED BY FRESIM ONLY)
                                     -------------------------------------------------------------------

      PERFORMANCE       0      10      20      30      40      50      60      70      80      90     100     110
      INDEX        FT/SEC  FT/SEC  FT/SEC  FT/SEC  FT/SEC  FT/SEC  FT/SEC  FT/SEC  FT/SEC  FT/SEC  FT/SEC  FT/SEC
      -----        ------  ------  ------  ------  ------  ------  ------  ------  ------  ------  ------  ------
         1           0.31    0.31    0.31    0.31    0.31    0.31    0.31    0.31    0.31    0.31    0.31    0.31
         2           0.31    0.31    0.31    0.31    0.31    0.31    0.31    0.31    0.31    0.31    0.31    0.31
         3           0.26    0.26    0.26    0.28    0.29    0.30    0.30    0.30    0.30    0.30    0.30    0.30
         4           0.11    0.11    0.23    0.27    0.28    0.29    0.30    0.30    0.30    0.30    0.30    0.30
         5           0.16    0.16    0.26    0.28    0.29    0.30    0.30    0.30    0.30    0.30    0.30    0.30
         6           0.20    0.20    0.28    0.29    0.30    0.30    0.30    0.30    0.31    0.31    0.31    0.31
         7           0.27    0.27    0.27    0.27    0.27    0.29    0.29    0.30    0.30    0.30    0.30    0.30
 **** THERE WERE   1 WARNING MESSAGES IN DATA.


                                                INITIALIZATION STATISTICS

          TIME INTERVAL        SUBNETWORK        PRIOR CONTENT      CURRENT CONTENT         PERCENT
             NUMBER               TYPE             (VEHICLES)          (VEHICLES)          DIFFERENCE

                1                NETSIM                 0                  34                10000
                2                NETSIM                34                  73                  114
                3                NETSIM                73                 105                   43
                4                NETSIM               105                 124                   18
                5                NETSIM               124                 134                    8
                6                NETSIM               134                 160                   19
                7                NETSIM               160                 171                    6
                8                NETSIM               171                 168                    1    EQUILIBRIUM ATTAINED
                                            ALL EXISTING SUBNETWORKS REACHED EQUILIBRIUM

              SPILLBACK ON NETSIM  LINK (    6,    2) STARTS    1 SECONDS INTO SIMULATION

              SPILLBACK ON NETSIM  LINK (    6,    2) ENDS    212 SECONDS INTO SIMULATION AFTER A DURATION OF  211 SECONDS

              SPILLBACK ON NETSIM  LINK (    6,    2) STARTS  233 SECONDS INTO SIMULATION

              SPILLBACK ON NETSIM  LINK (    6,    2) ENDS    236 SECONDS INTO SIMULATION AFTER A DURATION OF    3 SECONDS

              SPILLBACK ON NETSIM  LINK (    6,    2) STARTS  243 SECONDS INTO SIMULATION

              SPILLBACK ON NETSIM  LINK (    6,    2) ENDS    244 SECONDS INTO SIMULATION AFTER A DURATION OF    1 SECONDS

              SPILLBACK ON NETSIM  LINK (    6,    2) STARTS  252 SECONDS INTO SIMULATION

              SPILLBACK ON NETSIM  LINK (    6,    2) ENDS    253 SECONDS INTO SIMULATION AFTER A DURATION OF    1 SECONDS

              SPILLBACK ON NETSIM  LINK (    6,    2) STARTS  259 SECONDS INTO SIMULATION

              SPILLBACK ON NETSIM  LINK (    6,    2) ENDS    265 SECONDS INTO SIMULATION AFTER A DURATION OF    6 SECONDS

              SPILLBACK ON NETSIM  LINK (    6,    2) STARTS  267 SECONDS INTO SIMULATION

              SPILLBACK ON NETSIM  LINK (    6,    2) ENDS    268 SECONDS INTO SIMULATION AFTER A DURATION OF    1 SECONDS

              SPILLBACK ON NETSIM  LINK (    6,    2) STARTS  269 SECONDS INTO SIMULATION

              SPILLBACK ON NETSIM  LINK (    6,    2) ENDS    271 SECONDS INTO SIMULATION AFTER A DURATION OF    2 SECONDS

              SPILLBACK ON NETSIM  LINK (    6,    2) STARTS  272 SECONDS INTO SIMULATION

              SPILLBACK ON NETSIM  LINK (    6,    2) ENDS    274 SECONDS INTO SIMULATION AFTER A DURATION OF    2 SECONDS

              SPILLBACK ON NETSIM  LINK (    6,    2) STARTS  277 SECONDS INTO SIMULATION

              SPILLBACK ON NETSIM  LINK (    5,    2) STARTS  460 SECONDS INTO SIMULATION

              SPILLBACK ON NETSIM  LINK (    5,    2) ENDS    465 SECONDS INTO SIMULATION AFTER A DURATION OF    5 SECONDS
 *****************  WARNING  ******************
  50 VEHICLES BACKED UP BEHIND NODE 8005
 *****************  WARNING  ******************
  50 VEHICLES BACKED UP BEHIND NODE 8005

              SPILLBACK ON NETSIM  LINK (    5,    2) STARTS  503 SECONDS INTO SIMULATION

              SPILLBACK ON NETSIM  LINK (    5,    2) ENDS    546 SECONDS INTO SIMULATION AFTER A DURATION OF   43 SECONDS

              SPILLBACK ON NETSIM  LINK (    6,    2) ENDS    546 SECONDS INTO SIMULATION AFTER A DURATION OF  269 SECONDS

              SPILLBACK ON NETSIM  LINK (    6,    2) STARTS  549 SECONDS INTO SIMULATION

              SPILLBACK ON NETSIM  LINK (    6,    2) ENDS    550 SECONDS INTO SIMULATION AFTER A DURATION OF    1 SECONDS

              SPILLBACK ON NETSIM  LINK (    6,    2) STARTS  564 SECONDS INTO SIMULATION

              SPILLBACK ON NETSIM  LINK (    6,    2) ENDS    565 SECONDS INTO SIMULATION AFTER A DURATION OF    1 SECONDS

              SPILLBACK ON NETSIM  LINK (    6,    2) STARTS  567 SECONDS INTO SIMULATION

              SPILLBACK ON NETSIM  LINK (    6,    2) ENDS    568 SECONDS INTO SIMULATION AFTER A DURATION OF    1 SECONDS

              SPILLBACK ON NETSIM  LINK (    6,    2) STARTS  569 SECONDS INTO SIMULATION

              SPILLBACK ON NETSIM  LINK (    6,    2) ENDS    570 SECONDS INTO SIMULATION AFTER A DURATION OF    1 SECONDS

              SPILLBACK ON NETSIM  LINK (    6,    2) STARTS  614 SECONDS INTO SIMULATION

              SPILLBACK ON NETSIM  LINK (    5,    2) STARTS  790 SECONDS INTO SIMULATION

              SPILLBACK ON NETSIM  LINK (    5,    2) ENDS    796 SECONDS INTO SIMULATION AFTER A DURATION OF    6 SECONDS

              SPILLBACK ON NETSIM  LINK (    5,    2) STARTS  797 SECONDS INTO SIMULATION

              SPILLBACK ON NETSIM  LINK (    6,    2) ENDS    806 SECONDS INTO SIMULATION AFTER A DURATION OF  192 SECONDS

              SPILLBACK ON NETSIM  LINK (    6,    2) STARTS  810 SECONDS INTO SIMULATION

              SPILLBACK ON NETSIM  LINK (    6,    2) ENDS    819 SECONDS INTO SIMULATION AFTER A DURATION OF    9 SECONDS

              SPILLBACK ON NETSIM  LINK (    6,    2) STARTS  821 SECONDS INTO SIMULATION

              SPILLBACK ON NETSIM  LINK (    6,    2) ENDS    824 SECONDS INTO SIMULATION AFTER A DURATION OF    3 SECONDS

              SPILLBACK ON NETSIM  LINK (    6,    2) STARTS  836 SECONDS INTO SIMULATION

              SPILLBACK ON NETSIM  LINK (    6,    2) ENDS    837 SECONDS INTO SIMULATION AFTER A DURATION OF    1 SECONDS

              SPILLBACK ON NETSIM  LINK (    6,    2) STARTS  842 SECONDS INTO SIMULATION

              SPILLBACK ON NETSIM  LINK (    6,    2) ENDS    845 SECONDS INTO SIMULATION AFTER A DURATION OF    3 SECONDS

              SPILLBACK ON NETSIM  LINK (    6,    2) STARTS  850 SECONDS INTO SIMULATION

              SPILLBACK ON NETSIM  LINK (    6,    2) ENDS    853 SECONDS INTO SIMULATION AFTER A DURATION OF    3 SECONDS

              SPILLBACK ON NETSIM  LINK (    6,    2) STARTS  854 SECONDS INTO SIMULATION

              SPILLBACK ON NETSIM  LINK (    6,    2) ENDS    855 SECONDS INTO SIMULATION AFTER A DURATION OF    1 SECONDS

              SPILLBACK ON NETSIM  LINK (    6,    2) STARTS  858 SECONDS INTO SIMULATION

              SPILLBACK ON NETSIM  LINK (    6,    2) ENDS    860 SECONDS INTO SIMULATION AFTER A DURATION OF    2 SECONDS

              SPILLBACK ON NETSIM  LINK (    6,    2) STARTS  865 SECONDS INTO SIMULATION

              SPILLBACK ON NETSIM  LINK (    6,    2) ENDS    866 SECONDS INTO SIMULATION AFTER A DURATION OF    1 SECONDS

              SPILLBACK ON NETSIM  LINK (    6,    2) STARTS  867 SECONDS INTO SIMULATION

              SPILLBACK ON NETSIM  LINK (    6,    2) ENDS    868 SECONDS INTO SIMULATION AFTER A DURATION OF    1 SECONDS

              SPILLBACK ON NETSIM  LINK (    6,    2) STARTS  875 SECONDS INTO SIMULATION

              SPILLBACK ON NETSIM  LINK (    6,    2) ENDS    883 SECONDS INTO SIMULATION AFTER A DURATION OF    8 SECONDS

              SPILLBACK ON NETSIM  LINK (    6,    2) STARTS  884 SECONDS INTO SIMULATION

              SPILLBACK ON NETSIM  LINK (    5,    2) ENDS    893 SECONDS INTO SIMULATION AFTER A DURATION OF   96 SECONDS

              SPILLBACK ON NETSIM  LINK (    6,    2) ENDS    895 SECONDS INTO SIMULATION AFTER A DURATION OF   11 SECONDS

                                           CUMULATIVE NETSIM STATISTICS AT TIME 14:24: 0

                       ELAPSED TIME IS  0:15: 0 (  900 SECONDS),    TIME PERIOD  1 ELAPSED TIME IS  900 SECONDS


                                VEHICLE MINUTES    RATIO   MINUTES/MILE    -------- SECONDS / VEHICLE  --------- - AVERAGE VALUES -
                 VEHICLE      MOVE   DELAY   TOTAL MOVE/   TOTAL   DELAY   TOTAL   DELAY  CONTROL  QUEUE   STOP* STOPS  VOL SPEED
    LINK       MILES TRIPS    TIME    TIME    TIME TOTAL    TIME    TIME    TIME    TIME   DELAY   DELAY    TIME   (%)  VPH   MPH
    ----       -----------    -------------------- -----   -------------   ------------------------------------- -------------------

 (8001,   9)           124                                                                                             496
 (   9,   1)   11.17   118    22.3   124.7   147.0  0.15   13.16   11.16    74.3    63.2    54.5    54.5    52.2   73  472     4.6
 (   1,   9)   13.54   156    27.1     5.2    32.3  0.84    2.39    0.39    12.4     2.0     0.0     0.0     0.4    0  624    25.1
 (   1,   4)    9.15   102    18.3     3.1    21.4  0.86    2.34    0.34    12.5     1.8     0.0     0.0     0.3    0  408    25.7
 (   4,   1)   11.08   117    22.2    88.4   110.6  0.20    9.98    7.98    58.4    47.3    40.9    39.7    37.9   64  468     6.0
 (8002,   4)           124                                                                                             496
 (8003,   3)           249                                                                                             996
 (   3,   1)   23.58   249    47.2   573.2   620.4  0.08   26.31   24.31   151.0   140.2   107.6   125.5   119.7   75  996     2.3
 (   1,   3)   13.92   155    27.8     4.2    32.1  0.87    2.30    0.30    12.4     1.6     0.0     0.0     0.2    0  620    26.1
 (   1,   2)   15.92   188    31.8   217.4   249.3  0.13   15.66   13.66    78.3    68.3    63.2    61.3    59.7   63  752     3.8
 (   2,   1)   11.14   127    22.3   193.4   215.6  0.10   19.37   17.37   106.1    96.1    89.8    90.1    87.7   70  508     3.1
 (   2,   7)   11.35   121    22.7     3.0    25.7  0.88    2.26    0.26    12.3     1.5     0.0     0.0     0.1    0  484    26.5
 (   7,   2)   15.72   166    31.4   566.5   598.0  0.05   38.04   36.04   224.6   214.2   170.7   183.8   177.5   68  664     1.6
 (8004,   7)           174                                                                                             696
 (8005,   6)            63                                                                                             252
 (   6,   2)    3.75    66     7.5   393.4   400.9  0.02  106.91  104.91   310.3   304.5   240.4   259.1   251.3   87  264     0.6
 (   2,   6)    5.29   107    10.6     2.4    13.0  0.82    2.45    0.45     7.2     1.4     0.0     0.0     0.2    0  428    24.5
 (   2,   5)    7.06   139    14.1     3.5    17.7  0.80    2.50    0.50     7.6     1.5     0.0     0.0     0.3    0  556    24.0
 (   5,   2)    5.68   100    11.4   174.7   186.1  0.06   32.75   30.75   114.4   108.2    97.4   101.0    99.6   82  400     1.8
 (8006,   5)           113                                                                                             452
SUBNETWORK =  158.34   780    5.28   39.22   44.50  0.12   16.86   14.86    3.18    2.85    2.33    2.49    2.41     104.1     3.6
                             -- VEHICLE - HOURS --                           --- MINUTES / VEHICLE-TRIP ---     PER
                                                                                                               TRIP


                                           CUMULATIVE NETSIM STATISTICS AT TIME 14:24: 0

                       ELAPSED TIME IS  0:15: 0 (  900 SECONDS),    TIME PERIOD  1 ELAPSED TIME IS  900 SECONDS


                 VEH-MINS *    AVERAGE   -- CONGESTION --    ------------     Q U E U E    L E N G T H  (VEHICLE)     ------------       NUMBER
               QUEUE    STOP  OCCUPANCY   STORAGE   PHASE            AVERAGE QUEUE BY LANE **              MAXIMUM QUEUE BY LANE         OF LANE
    LINK        TIME    TIME  (VEHICLE)    (%)    FAILURE     1   2   3   4   5   6   7   8   9      1   2   3   4   5   6   7   8   9   CHANGES
    ----       -------------  ---------  ----------------     -   -   -   -   -   -   -   -   -      -   -   -   -   -   -   -   -   -

 (   9,   1)   125.4   120.2     10.8     10.1        0       4   1   0   4   0   0   0   0   0     11   4   4  11   0   0   0   0   0       137
 (   1,   9)     0.0     1.1      2.6      4.9        0       0   0   0   0   0   0   0   0   0      0   0   0   0   0   0   0   0   0         1
 (   1,   4)     0.0     0.5      1.8      3.4        0       0   0   0   0   0   0   0   0   0      0   0   0   0   0   0   0   0   0         3
 (   4,   1)    90.1    86.0      8.5      6.3        0       2   1   0   0   3   0   0   0   0     10   5   3   1   9   0   0   0   0       192
 (   3,   1)   600.2   572.5     44.8     41.5        4      19   4   3  16   0   0   0   0   0     24  12  11  19   0   0   0   0   0       298
 (   1,   3)     0.0     0.5      2.5      2.3        0       0   0   0   0   0   0   0   0   0      0   0   0   0   0   0   0   0   0         4
 (   1,   2)   217.7   212.0     19.0     18.6        1       3   2   2   7   0   0   0   0   0     14  14  15  17   0   0   0   0   0       238
 (   2,   1)   220.7   214.8     17.4     17.3        3       3   2   1   9   0   0   0   0   0     13   6   5  19   0   0   0   0   0       135
 (   2,   7)     0.0     0.3      2.0      1.9        0       0   0   0   0   0   0   0   0   0      0   0   0   0   0   0   0   0   0        22
 (   7,   2)   673.9   650.9     49.1     45.7        3      15   5   9  16   0   0   0   0   0     23  16  18  19   0   0   0   0   0       185
 (   6,   2)   397.3   385.3     28.4     88.1        4      13  14   0   0   0   0   0   0   0     15  16   0   0   0   0   0   0   0        17
 (   2,   6)     0.0     0.4      1.2      3.8        0       0   0   0   0   0   0   0   0   0      0   0   0   0   0   0   0   0   0         5
 (   2,   5)     0.0     0.8      1.7      5.3        0       0   0   0   0   0   0   0   0   0      0   0   0   0   0   0   0   0   0         6
 (   5,   2)   198.6   195.9     15.3     47.5        1       7   7   0   0   0   0   0   0   0     14  14   0   0   0   0   0   0   0        32
SUBNETWORK =  2523.8  2441.1    205.3     18.5       16                                                                                     1275

                              *  THESE VALUES INCLUDE THE TIME FOR VEHICLES CURRENTLY ON THE LINK.
                              ** AVERAGE QUEUE CALCULATED BASED ON TIME SINCE BEGINNING OF SIMULATION





                                           CUMULATIVE NETSIM STATISTICS AT TIME 14:24: 0

                       ELAPSED TIME IS  0:15: 0 (  900 SECONDS),    TIME PERIOD  1 ELAPSED TIME IS  900 SECONDS


                                                     DISCHARGE BY LANE

                 LANE 1       LANE 2       LANE 3       LANE 4       LANE 5       LANE 6       LANE 7       LANE 8       LANE 9
    LINK        VEH   VPH    VEH   VPH    VEH   VPH    VEH   VPH    VEH   VPH    VEH   VPH    VEH   VPH    VEH   VPH    VEH   VPH 
    ----        ---   ---    ---   ---    ---   ---    ---   ---    ---   ---    ---   ---    ---   ---    ---   ---    ---   ---

(   9,   1)      55   220     17    68      5    20     41   164      0     0      0     0      0     0      0     0      0     0
(   1,   9)     100   400     56   224      0     0      0     0      0     0      0     0      0     0      0     0      0     0
(   1,   4)      40   160     62   248      0     0      0     0      0     0      0     0      0     0      0     0      0     0
(   4,   1)      55   220     14    56      7    28      5    20     36   144      0     0      0     0      0     0      0     0
(   3,   1)      93   372     50   200     72   288     34   136      0     0      0     0      0     0      0     0      0     0
(   1,   3)      58   232     24    96     33   132     40   160      0     0      0     0      0     0      0     0      0     0
(   1,   2)      72   288     27   108     25   100     64   256      0     0      0     0      0     0      0     0      0     0
(   2,   1)      48   192     21    84     32   128     26   104      0     0      0     0      0     0      0     0      0     0
(   2,   7)      33   132     30   120     35   140     23    92      0     0      0     0      0     0      0     0      0     0
(   7,   2)      68   272     24    96     46   184     28   112      0     0      0     0      0     0      0     0      0     0
(   6,   2)      35   140     31   124      0     0      0     0      0     0      0     0      0     0      0     0      0     0
(   2,   6)      63   252     44   176      0     0      0     0      0     0      0     0      0     0      0     0      0     0
(   2,   5)      74   296     65   260      0     0      0     0      0     0      0     0      0     0      0     0      0     0
(   5,   2)      45   180     55   220      0     0      0     0      0     0      0     0      0     0      0     0      0     0




                                                 NETSIM PERSON MEASURES OF EFFECTIVENESS


                           LINK             PERSON              PERSON               DELAY            TRAVEL TIME
                                             MILE                TRIPS             PERSON-MIN          PERSON-MIN

                       (8001,   9)            0.0                  0.0                 0.0                   0.0
                       (   9,   1)           14.5                153.4               162.0                 191.1
                       (   1,   9)           17.6                202.8                 6.8                  42.0
                       (   1,   4)           11.9                132.6                 4.0                  27.8
                       (   4,   1)           14.4                152.1               115.0                 143.8
                       (8002,   4)            0.0                  0.0                 0.0                   0.0
                       (8003,   3)            0.0                  0.0                 0.0                   0.0
                       (   3,   1)           30.7                323.7               745.2                 806.5
                       (   1,   3)           18.1                201.5                 5.5                  41.7
                       (   1,   2)           20.7                244.4               282.6                 324.0
                       (   2,   1)           14.5                165.1               251.4                 280.3
                       (   2,   7)           14.7                157.3                 3.8                  33.3
                       (   7,   2)           20.4                215.8               736.5                 777.4
                       (8004,   7)            0.0                  0.0                 0.0                   0.0


    *** NOTE ***    TIME PERIOD 1 SPECIFIC NETSIM STATISTICS ARE THE SAME AS CUMULATIVE OUTPUT AT THE END OF TIME PERIOD 1.



                                                 NETSIM CUMULATIVE VALUES OF FUEL CONSUMPTION
                                                  FUEL CONSUMPTION BY VEHICLE TYPE (GALLONS)
      LINK            1       2       3       4       5       6       7       8       9      10      11      12      13      14      15      16
 (   9,    1)       1.29    0.00    0.00    0.00    0.51    0.00    0.00    0.00    0.00    0.00    0.00    0.00    0.00    0.00    0.00    0.00
 (   1,    9)       0.87    0.00    0.00    0.00    0.37    0.00    0.00    0.00    0.00    0.00    0.00    0.00    0.00    0.00    0.00    0.00
 (   1,    4)       0.51    0.00    0.00    0.00    0.30    0.00    0.00    0.00    0.00    0.00    0.00    0.00    0.00    0.00    0.00    0.00
 (   4,    1)       1.12    0.00    0.00    0.00    0.41    0.00    0.00    0.00    0.00    0.00    0.00    0.00    0.00    0.00    0.00    0.00
 (   3,    1)       4.73    0.00    0.00    0.00    1.86    0.00    0.00    0.00    0.00    0.00    0.00    0.00    0.00    0.00    0.00    0.00
 (   1,    3)       0.81    0.00    0.00    0.00    0.41    0.00    0.00    0.00    0.00    0.00    0.00    0.00    0.00    0.00    0.00    0.00
 (   1,    2)       2.60    0.00    0.00    0.00    1.16    0.00    0.00    0.00    0.00    0.00    0.00    0.00    0.00    0.00    0.00    0.00
 (   2,    1)       2.26    0.00    0.00    0.00    0.67    0.00    0.00    0.00    0.00    0.00    0.00    0.00    0.00    0.00    0.00    0.00
 (   2,    7)       0.59    0.00    0.00    0.00    0.33    0.00    0.00    0.00    0.00    0.00    0.00    0.00    0.00    0.00    0.00    0.00
 (   7,    2)       5.00    0.00    0.00    0.00    1.68    0.00    0.00    0.00    0.00    0.00    0.00    0.00    0.00    0.00    0.00    0.00
 (   6,    2)       2.79    0.00    0.00    0.00    0.59    0.00    0.00    0.00    0.00    0.00    0.00    0.00    0.00    0.00    0.00    0.00
 (   2,    6)       0.45    0.00    0.00    0.00    0.28    0.00    0.00    0.00    0.00    0.00    0.00    0.00    0.00    0.00    0.00    0.00
 (   2,    5)       0.66    0.00    0.00    0.00    0.31    0.00    0.00    0.00    0.00    0.00    0.00    0.00    0.00    0.00    0.00    0.00
 (   5,    2)       1.72    0.00    0.00    0.00    0.50    0.00    0.00    0.00    0.00    0.00    0.00    0.00    0.00    0.00    0.00    0.00
 SUBNETWORK-       25.42    0.00    0.00    0.00    9.37    0.00    0.00    0.00    0.00    0.00    0.00    0.00    0.00    0.00    0.00    0.00
VEHICLE TYPES 1, 5 = AUTO, VEHICLE TYPES 2, 6, 7, 8 = TRUCK, VEHICLE TYPE 4 = TRANSIT BUS, VEHICLE TYPES 3, 9 = CARPOOL, VEHICLE TYPES 10 - 16 USER DEFINED

                                                  FUEL CONSUMPTION BY VEHICLE TYPE (M.P.G.)
      LINK            1       2       3       4       5       6       7       8       9      10      11      12      13      14      15      16
 (   9,    1)       6.81    0.00    0.00    0.00    4.69    0.00    0.00    0.00    0.00    0.00    0.00    0.00    0.00    0.00    0.00    0.00
 (   1,    9)      11.89    0.00    0.00    0.00    6.48    0.00    0.00    0.00    0.00    0.00    0.00    0.00    0.00    0.00    0.00    0.00
 (   1,    4)      12.64    0.00    0.00    0.00    6.98    0.00    0.00    0.00    0.00    0.00    0.00    0.00    0.00    0.00    0.00    0.00
 (   4,    1)       8.00    0.00    0.00    0.00    5.64    0.00    0.00    0.00    0.00    0.00    0.00    0.00    0.00    0.00    0.00    0.00
 (   3,    1)       3.70    0.00    0.00    0.00    3.15    0.00    0.00    0.00    0.00    0.00    0.00    0.00    0.00    0.00    0.00    0.00
 (   1,    3)      12.87    0.00    0.00    0.00    6.86    0.00    0.00    0.00    0.00    0.00    0.00    0.00    0.00    0.00    0.00    0.00
 (   1,    2)       4.86    0.00    0.00    0.00    3.79    0.00    0.00    0.00    0.00    0.00    0.00    0.00    0.00    0.00    0.00    0.00
 (   2,    1)       4.14    0.00    0.00    0.00    3.29    0.00    0.00    0.00    0.00    0.00    0.00    0.00    0.00    0.00    0.00    0.00
 (   2,    7)      14.93    0.00    0.00    0.00    7.82    0.00    0.00    0.00    0.00    0.00    0.00    0.00    0.00    0.00    0.00    0.00
 (   7,    2)       2.45    0.00    0.00    0.00    2.14    0.00    0.00    0.00    0.00    0.00    0.00    0.00    0.00    0.00    0.00    0.00
 (   6,    2)       1.11    0.00    0.00    0.00    0.88    0.00    0.00    0.00    0.00    0.00    0.00    0.00    0.00    0.00    0.00    0.00
 (   2,    6)       8.28    0.00    0.00    0.00    4.41    0.00    0.00    0.00    0.00    0.00    0.00    0.00    0.00    0.00    0.00    0.00
 (   2,    5)       7.74    0.00    0.00    0.00    4.40    0.00    0.00    0.00    0.00    0.00    0.00    0.00    0.00    0.00    0.00    0.00
 (   5,    2)       2.54    0.00    0.00    0.00    2.48    0.00    0.00    0.00    0.00    0.00    0.00    0.00    0.00    0.00    0.00    0.00
 SUBNETWORK-        4.80    0.00    0.00    0.00    3.73    0.00    0.00    0.00    0.00    0.00    0.00    0.00    0.00    0.00    0.00    0.00
VEHICLE TYPES 1, 5 = AUTO, VEHICLE TYPES 2, 6, 7, 8 = TRUCK, VEHICLE TYPE 4 = TRANSIT BUS, VEHICLE TYPES 3, 9 = CARPOOL, VEHICLE TYPES 10 - 16 USER DEFINED

                                               NETSIM CUMULATIVE VALUES OF EMISSION


                                              VEHICLE EMISSIONS BY VEHICLE TYPE (GRAMS / MILE)
                                                                            HC
      LINK                1       2       3       4       5       6       7       8       9      10      11      12      13      14      15      16
 (   9,    1)           0.29    0.00    0.00    0.00    0.28    0.00    0.00    0.00    0.00    0.00    0.00    0.00    0.00    0.00    0.00    0.00
 (   1,    9)           0.47    0.00    0.00    0.00    0.40    0.00    0.00    0.00    0.00    0.00    0.00    0.00    0.00    0.00    0.00    0.00
 (   1,    4)           0.42    0.00    0.00    0.00    0.35    0.00    0.00    0.00    0.00    0.00    0.00    0.00    0.00    0.00    0.00    0.00
 (   4,    1)           0.29    0.00    0.00    0.00    0.26    0.00    0.00    0.00    0.00    0.00    0.00    0.00    0.00    0.00    0.00    0.00
 (   3,    1)           0.31    0.00    0.00    0.00    0.23    0.00    0.00    0.00    0.00    0.00    0.00    0.00    0.00    0.00    0.00    0.00
 (   1,    3)           0.42    0.00    0.00    0.00    0.36    0.00    0.00    0.00    0.00    0.00    0.00    0.00    0.00    0.00    0.00    0.00
 (   1,    2)           0.53    0.00    0.00    0.00    0.42    0.00    0.00    0.00    0.00    0.00    0.00    0.00    0.00    0.00    0.00    0.00
 (   2,    1)           0.47    0.00    0.00    0.00    0.43    0.00    0.00    0.00    0.00    0.00    0.00    0.00    0.00    0.00    0.00    0.00
 (   2,    7)           0.34    0.00    0.00    0.00    0.31    0.00    0.00    0.00    0.00    0.00    0.00    0.00    0.00    0.00    0.00    0.00
 (   7,    2)           0.33    0.00    0.00    0.00    0.24    0.00    0.00    0.00    0.00    0.00    0.00    0.00    0.00    0.00    0.00    0.00
 (   6,    2)           0.15    0.00    0.00    0.00    0.11    0.00    0.00    0.00    0.00    0.00    0.00    0.00    0.00    0.00    0.00    0.00
 (   2,    6)           0.80    0.00    0.00    0.00    0.64    0.00    0.00    0.00    0.00    0.00    0.00    0.00    0.00    0.00    0.00    0.00
 (   2,    5)           0.84    0.00    0.00    0.00    0.62    0.00    0.00    0.00    0.00    0.00    0.00    0.00    0.00    0.00    0.00    0.00
 (   5,    2)           0.47    0.00    0.00    0.00    0.31    0.00    0.00    0.00    0.00    0.00    0.00    0.00    0.00    0.00    0.00    0.00
 SUBNETWORK-            0.41    0.00    0.00    0.00    0.34    0.00    0.00    0.00    0.00    0.00    0.00    0.00    0.00    0.00    0.00    0.00
VEHICLE TYPES 1, 5 = AUTO, VEHICLE TYPES 2, 6, 7, 8 = TRUCK, VEHICLE TYPE 4 = TRANSIT BUS, VEHICLE TYPES 3, 9 = CARPOOL, VEHICLE TYPES 10 - 16 USER DEFINED

                                               NETSIM CUMULATIVE VALUES OF EMISSION


                                              VEHICLE EMISSIONS BY VEHICLE TYPE (GRAMS / MILE)
                                                                            CO
      LINK                1       2       3       4       5       6       7       8       9      10      11      12      13      14      15      16
 (   9,    1)          25.01    0.00    0.00    0.00   21.18    0.00    0.00    0.00    0.00    0.00    0.00    0.00    0.00    0.00    0.00    0.00
 (   1,    9)          35.41    0.00    0.00    0.00   25.52    0.00    0.00    0.00    0.00    0.00    0.00    0.00    0.00    0.00    0.00    0.00
 (   1,    4)          32.63    0.00    0.00    0.00   22.88    0.00    0.00    0.00    0.00    0.00    0.00    0.00    0.00    0.00    0.00    0.00
 (   4,    1)          24.90    0.00    0.00    0.00   19.99    0.00    0.00    0.00    0.00    0.00    0.00    0.00    0.00    0.00    0.00    0.00
 (   3,    1)          27.28    0.00    0.00    0.00   18.05    0.00    0.00    0.00    0.00    0.00    0.00    0.00    0.00    0.00    0.00    0.00
 (   1,    3)          33.05    0.00    0.00    0.00   23.45    0.00    0.00    0.00    0.00    0.00    0.00    0.00    0.00    0.00    0.00    0.00
 (   1,    2)          39.51    0.00    0.00    0.00   26.15    0.00    0.00    0.00    0.00    0.00    0.00    0.00    0.00    0.00    0.00    0.00
 (   2,    1)          37.07    0.00    0.00    0.00   28.11    0.00    0.00    0.00    0.00    0.00    0.00    0.00    0.00    0.00    0.00    0.00
 (   2,    7)          26.58    0.00    0.00    0.00   20.13    0.00    0.00    0.00    0.00    0.00    0.00    0.00    0.00    0.00    0.00    0.00
 (   7,    2)          30.74    0.00    0.00    0.00   20.52    0.00    0.00    0.00    0.00    0.00    0.00    0.00    0.00    0.00    0.00    0.00
 (   6,    2)          20.99    0.00    0.00    0.00   22.53    0.00    0.00    0.00    0.00    0.00    0.00    0.00    0.00    0.00    0.00    0.00
 (   2,    6)          62.53    0.00    0.00    0.00   38.50    0.00    0.00    0.00    0.00    0.00    0.00    0.00    0.00    0.00    0.00    0.00
 (   2,    5)          64.83    0.00    0.00    0.00   37.26    0.00    0.00    0.00    0.00    0.00    0.00    0.00    0.00    0.00    0.00    0.00
 (   5,    2)          37.83    0.00    0.00    0.00   21.75    0.00    0.00    0.00    0.00    0.00    0.00    0.00    0.00    0.00    0.00    0.00
 SUBNETWORK-           33.60    0.00    0.00    0.00   23.35    0.00    0.00    0.00    0.00    0.00    0.00    0.00    0.00    0.00    0.00    0.00
VEHICLE TYPES 1, 5 = AUTO, VEHICLE TYPES 2, 6, 7, 8 = TRUCK, VEHICLE TYPE 4 = TRANSIT BUS, VEHICLE TYPES 3, 9 = CARPOOL, VEHICLE TYPES 10 - 16 USER DEFINED

                                               NETSIM CUMULATIVE VALUES OF EMISSION


                                              VEHICLE EMISSIONS BY VEHICLE TYPE (GRAMS / MILE)
                                                                            NOx
      LINK                1       2       3       4       5       6       7       8       9      10      11      12      13      14      15      16
 (   9,    1)           0.90    0.00    0.00    0.00    1.42    0.00    0.00    0.00    0.00    0.00    0.00    0.00    0.00    0.00    0.00    0.00
 (   1,    9)           1.51    0.00    0.00    0.00    2.03    0.00    0.00    0.00    0.00    0.00    0.00    0.00    0.00    0.00    0.00    0.00
 (   1,    4)           1.40    0.00    0.00    0.00    1.81    0.00    0.00    0.00    0.00    0.00    0.00    0.00    0.00    0.00    0.00    0.00
 (   4,    1)           0.93    0.00    0.00    0.00    1.27    0.00    0.00    0.00    0.00    0.00    0.00    0.00    0.00    0.00    0.00    0.00
 (   3,    1)           1.04    0.00    0.00    0.00    1.28    0.00    0.00    0.00    0.00    0.00    0.00    0.00    0.00    0.00    0.00    0.00
 (   1,    3)           1.36    0.00    0.00    0.00    1.92    0.00    0.00    0.00    0.00    0.00    0.00    0.00    0.00    0.00    0.00    0.00
 (   1,    2)           1.85    0.00    0.00    0.00    2.21    0.00    0.00    0.00    0.00    0.00    0.00    0.00    0.00    0.00    0.00    0.00
 (   2,    1)           1.59    0.00    0.00    0.00    2.23    0.00    0.00    0.00    0.00    0.00    0.00    0.00    0.00    0.00    0.00    0.00
 (   2,    7)           1.11    0.00    0.00    0.00    1.63    0.00    0.00    0.00    0.00    0.00    0.00    0.00    0.00    0.00    0.00    0.00
 (   7,    2)           1.16    0.00    0.00    0.00    1.46    0.00    0.00    0.00    0.00    0.00    0.00    0.00    0.00    0.00    0.00    0.00
 (   6,    2)           0.78    0.00    0.00    0.00    0.66    0.00    0.00    0.00    0.00    0.00    0.00    0.00    0.00    0.00    0.00    0.00
 (   2,    6)           2.50    0.00    0.00    0.00    3.37    0.00    0.00    0.00    0.00    0.00    0.00    0.00    0.00    0.00    0.00    0.00
 (   2,    5)           2.67    0.00    0.00    0.00    3.42    0.00    0.00    0.00    0.00    0.00    0.00    0.00    0.00    0.00    0.00    0.00
 (   5,    2)           1.77    0.00    0.00    0.00    1.88    0.00    0.00    0.00    0.00    0.00    0.00    0.00    0.00    0.00    0.00    0.00
 SUBNETWORK-            1.38    0.00    0.00    0.00    1.81    0.00    0.00    0.00    0.00    0.00    0.00    0.00    0.00    0.00    0.00    0.00
VEHICLE TYPES 1, 5 = AUTO, VEHICLE TYPES 2, 6, 7, 8 = TRUCK, VEHICLE TYPE 4 = TRANSIT BUS, VEHICLE TYPES 3, 9 = CARPOOL, VEHICLE TYPES 10 - 16 USER DEFINED



 THE HIGHEST NUMBER OF VEHICLES ON THE NETWORK WAS   245 VEHICLES.
 THIS MAXIMUM OCCURRED AT   634 SECONDS.


THE FRACTION OF VEHICLES THAT WERE UNABLE TO COMPLETE THEIR ASSIGNED TURN MOVEMENT WAS    0.08446





                                          -------------------------------
                                          NETWORK-WIDE AVERAGE STATISTICS
                                          -------------------------------

 TOTAL VEHICLE- MILE =     158.34     VEHICLE-HOURS OF:  MOVE TIME =     5.28 , DELAY TIME =    39.22 , TOTAL TIME =    44.50

 AVERAGE SPEED ( MPH)=       3.56     MOVE/TOTAL = 0.12       MINUTES/MILE OF:  DELAY TIME =    14.86 , TOTAL TIME =    16.86

 NETWORK-WIDE STATISTICS FOR SCRIPT PROCESSING
     158.34,     5.28,    39.22,    44.50,       3.56, 0.12,    14.86,    16.86

 TOTAL CPU TIME FOR SIMULATION =        0.64 SECONDS
 TOTAL CPU TIME FOR THIS RUN =        0.64 SECONDS
 ***** THERE WERE   1 WARNING MESSAGES.
 LAST CASE PROCESSED
