-----------------------
0.2217915868098471
1.0;16.90414584140725;0.0;
2.0;1.2406419302320397;0.0;
3.0;9.690789890644098;0.0;
4.0;14.835820334420648;0.0;
5.0;1.1781957882659282;0.0;
6.0;17.287858644065064;0.0;
7.0;13.79267537690381;0.0;
8.0;0.9672439501948534;0.0;
9.0;1.9917207552645444;0.0;
10.0;1.266075649766611;0.0;
11.0;9.138354395718228;0.0;
12.0;1.7701048562830168;0.0;
13.0;17.0;0.0;
14.0;0.9610766432044453;0.0;
15.0;8.233746363145427;0.0;
16.0;1.862851433316919;0.0;
17.0;21.216514532349013;0.0;
18.0;0.5613488578352378;0.0;
19.0;6.178340193789979;0.0;
20.0;11.294275601825055;0.0;
21.0;11.011670104944198;0.0;
22.0;17.405279810482035;0.0;
23.0;1.8687470585561534;0.0;
24.0;16.67361136245188;0.0;
25.0;1.745743121887939;0.0;
26.0;6.584269219592207;0.0;
27.0;0.3810130782622017;0.0;
28.0;16.327977046405028;0.0;
29.0;16.750597728792982;0.0;
30.0;17.63493350343265;0.0;
31.0;11.294275601825055;0.0;
32.0;2.0095808931581876;0.0;
33.0;6.296763908551136;0.0;
34.0;4.3772389693133205;0.0;
35.0;0.2138089935299395;0.0;
36.0;16.327977046405028;0.0;
37.0;0.10366421106976322;0.0;
38.0;1.1959027371992341;0.0;
39.0;12.97557021470951;0.0;
40.0;6.6532065682233466;0.0;
41.0;4.738035414793428;0.0;
42.0;0.2138089935299395;0.0;
43.0;3.2479818847689494;0.0;
44.0;0.3567932458793224;0.0;
45.0;18.29436187104818;0.0;
-----------------------
-----------------------
0.15835082418631688
1.0;10.12593537551855;0.0;
2.0;2.5082388514498235;0.0;
3.0;7.607899246794941;0.0;
4.0;10.002989586341267;0.0;
5.0;3.086321279059288;0.0;
6.0;4.712992962798957;0.0;
7.0;8.632427995221791;0.0;
8.0;3.095829196813284;0.0;
9.0;0.7685905509128644;0.0;
10.0;2.465286117637744;0.0;
11.0;5.58239380260618;0.0;
12.0;0.8983058162077956;0.0;
13.0;4.089706828593523;0.0;
14.0;0.22972437888281771;0.0;
15.0;6.6290664122423415;0.0;
16.0;1.4527264204583106;0.0;
17.0;6.106480311636744;0.0;
18.0;0.5613488578352378;0.0;
19.0;9.075751014352456;0.0;
20.0;8.781659076779965;0.0;
21.0;3.804637356800354;0.0;
22.0;4.792067046874551;0.0;
23.0;2.718909080065424;0.0;
24.0;9.1453318481455;0.0;
25.0;1.969832358592498;0.0;
26.0;4.19785878140557;0.0;
27.0;0.4470813424745908;0.0;
28.0;6.885308711893641;0.0;
29.0;4.225699952006553;0.0;
30.0;10.52114165709727;0.0;
31.0;8.014568768124047;0.0;
32.0;3.0050831986028324;0.0;
33.0;9.322569932293236;0.0;
34.0;3.1354806296920645;0.0;
35.0;0.2138089935299395;0.0;
36.0;5.4464234775893585;0.0;
37.0;0.8567373142345786;0.0;
38.0;0.0912237650618882;0.0;
39.0;8.014568768124047;0.0;
40.0;8.829780809418848;0.0;
41.0;2.6129884621587554;0.0;
42.0;0.4288450139351179;0.0;
43.0;1.5848199737074136;0.0;
44.0;2.965842935797902;0.0;
45.0;9.879601432585746;0.0;
-----------------------
-----------------------
Multiple runs averaged results
1.0;11.611064619684058;0.0;
2.0;3.4557174691289525;0.0;
3.0;14.318211616329803;0.0;
4.0;10.58940385772074;0.0;
5.0;3.490914284086542;0.0;
6.0;9.240374841998044;0.0;
7.0;10.43402185629931;0.0;
8.0;3.764632609967677;0.0;
9.0;2.904862727791898;0.0;
10.0;4.979426879393098;0.0;
11.0;6.937853338023044;0.0;
12.0;1.0540383669563334;0.0;
13.0;9.02327329415822;0.0;
14.0;2.2576049221005436;0.0;
15.0;7.377464432327202;0.0;
16.0;0.6247891210505621;0.0;
17.0;12.676694671254792;0.0;
18.0;0.46422288048679544;0.0;
19.0;10.998641970394996;0.0;
20.0;15.506500416204599;0.0;
21.0;3.9522075854992624;0.0;
22.0;9.749832314710064;0.0;
23.0;3.6977210005588335;0.0;
24.0;11.607322877135388;0.0;
25.0;0.4072857439157602;0.0;
26.0;6.584269219592207;0.0;
27.0;1.5039194460827383;0.0;
28.0;9.894771354614642;0.0;
29.0;9.051097692910483;0.0;
30.0;12.443476561771655;0.0;
31.0;6.908423664027963;0.0;
32.0;4.03257116721923;0.0;
33.0;10.708141664918097;0.0;
34.0;5.284406598255361;0.0;
35.0;0.7179805694479451;0.0;
36.0;9.262610044114977;0.0;
37.0;1.1224896378128435;0.0;
38.0;3.5012956159626603;0.0;
39.0;7.287022564592302;0.0;
40.0;10.607375301237498;0.0;
41.0;4.883122235710185;0.0;
42.0;0.634219707098028;0.0;
43.0;3.9549503372752257;0.0;
44.0;3.707945410333197;0.0;
45.0;12.255452631512755;0.0;
-----------------------
