Initial
RecordType,StartColumn,EndColumn,MinValue,MaxValue,Value,LineNumber,InitialNode,EndNode
11,61,64,14,99,58,8,8001,9,
11,61,64,14,99,58,9,9,1,
11,61,64,14,99,58,10,1,9,
11,61,64,14,99,58,11,1,4,
11,61,64,14,99,58,12,4,1,
11,61,64,14,99,58,13,8002,4,
11,61,64,14,99,58,14,8003,3,
11,61,64,14,99,58,15,3,1,
11,61,64,14,99,58,16,1,3,
11,61,64,14,99,58,17,1,2,
11,61,64,14,99,58,18,2,1,
11,61,64,14,99,68,19,2,7,
11,61,64,14,99,68,20,7,2,
11,61,64,14,99,68,21,8004,7,
11,61,64,14,99,68,22,8005,6,
11,61,64,14,99,68,23,6,2,
11,61,64,14,99,68,24,2,6,
11,61,64,14,99,68,25,2,5,
11,61,64,14,99,68,26,5,2,
11,61,64,14,99,68,27,8006,5,
11,57,60,0,99,40,8,8001,9,
11,57,60,0,99,40,9,9,1,
11,57,60,0,99,40,10,1,9,
11,57,60,0,99,40,11,1,4,
11,57,60,0,99,40,12,4,1,
11,57,60,0,99,40,13,8002,4,
11,57,60,0,99,40,14,8003,3,
11,57,60,0,99,40,15,3,1,
11,57,60,0,99,40,16,1,3,
11,57,60,0,99,50,17,1,2,
11,57,60,0,99,50,18,2,1,
11,57,60,0,99,50,19,2,7,
11,57,60,0,99,50,20,7,2,
11,57,60,0,99,50,21,8004,7,
11,57,60,0,99,50,22,8005,6,
11,57,60,0,99,50,23,6,2,
11,57,60,0,99,50,24,2,6,
11,57,60,0,99,50,25,2,5,
11,57,60,0,99,50,26,5,2,
11,57,60,0,99,50,27,8006,5,
153,1,4,0,100,5,70,-1,-1,
153,5,8,0,100,95,70,-1,-1,


